{
  "hlsl.addtionalIncludeDirectories": [
    ".",
    "C:\\Users\\ishyuich\\Documents\\Flash\\project-flash-app\\Library\\PackageCache\\com.unity.render-pipelines.universal@7.1.2\\Shaders\\",
    "C:\\Users\\ishyuich\\Documents\\Flash\\project-flash-app\\Library\\PackageCache\\com.unity.render-pipelines.universal@7.1.2\\ShaderLibrary\\",
    "C:\\Program Files\\Unity\\Hub\\Editor\\2019.3.0b8\\Editor\\Data\\CGIncludes\\"
  ]
}