%YAML 1.1
%TAG !u! tag:unity3d.com,2011:
--- !u!1 &5206985901166371457
GameObject:
  m_ObjectHideFlags: 0
  m_CorrespondingSourceObject: {fileID: 0}
  m_PrefabInstance: {fileID: 0}
  m_PrefabAsset: {fileID: 0}
  serializedVersion: 6
  m_Component:
  - component: {fileID: 1048550259140095137}
  - component: {fileID: 395046465424754970}
  - component: {fileID: -5346794113012207827}
  m_Layer: 0
  m_Name: 000_simple_bullet
  m_TagString: Untagged
  m_Icon: {fileID: 0}
  m_NavMeshLayer: 0
  m_StaticEditorFlags: 0
  m_IsActive: 1
--- !u!4 &1048550259140095137
Transform:
  m_ObjectHideFlags: 0
  m_CorrespondingSourceObject: {fileID: 0}
  m_PrefabInstance: {fileID: 0}
  m_PrefabAsset: {fileID: 0}
  m_GameObject: {fileID: 5206985901166371457}
  m_LocalRotation: {x: 0, y: 0, z: 0, w: 1}
  m_LocalPosition: {x: 488.21634, y: 2.7382154, z: 317.03323}
  m_LocalScale: {x: 0.5, y: 0.5, z: 0.5}
  m_Children:
  - {fileID: 697386657799034186}
  m_Father: {fileID: 0}
  m_RootOrder: 0
  m_LocalEulerAnglesHint: {x: 0, y: 0, z: 0}
--- !u!135 &395046465424754970
SphereCollider:
  m_ObjectHideFlags: 0
  m_CorrespondingSourceObject: {fileID: 0}
  m_PrefabInstance: {fileID: 0}
  m_PrefabAsset: {fileID: 0}
  m_GameObject: {fileID: 5206985901166371457}
  m_Material: {fileID: 13400000, guid: 98d426fb279808847b8354909188a895, type: 2}
  m_IsTrigger: 0
  m_Enabled: 1
  serializedVersion: 2
  m_Radius: 0.5
  m_Center: {x: 0, y: 0, z: 0}
--- !u!54 &-5346794113012207827
Rigidbody:
  m_ObjectHideFlags: 0
  m_CorrespondingSourceObject: {fileID: 0}
  m_PrefabInstance: {fileID: 0}
  m_PrefabAsset: {fileID: 0}
  m_GameObject: {fileID: 5206985901166371457}
  serializedVersion: 2
  m_Mass: 1
  m_Drag: 0
  m_AngularDrag: 0.05
  m_UseGravity: 1
  m_IsKinematic: 0
  m_Interpolate: 0
  m_Constraints: 0
  m_CollisionDetection: 0
--- !u!1001 &5536940132439752272
PrefabInstance:
  m_ObjectHideFlags: 0
  serializedVersion: 2
  m_Modification:
    m_TransformParent: {fileID: 1048550259140095137}
    m_Modifications:
    - target: {fileID: -927199367670048503, guid: 195f091c0610233419283f749f2dfbf8,
        type: 3}
      propertyPath: m_Name
      value: 001_DebugBall
      objectReference: {fileID: 0}
    - target: {fileID: -4216859302048453862, guid: 195f091c0610233419283f749f2dfbf8,
        type: 3}
      propertyPath: m_LocalPosition.x
      value: -0.018615
      objectReference: {fileID: 0}
    - target: {fileID: -4216859302048453862, guid: 195f091c0610233419283f749f2dfbf8,
        type: 3}
      propertyPath: m_LocalPosition.y
      value: -0.0069156
      objectReference: {fileID: 0}
    - target: {fileID: -4216859302048453862, guid: 195f091c0610233419283f749f2dfbf8,
        type: 3}
      propertyPath: m_LocalPosition.z
      value: 0.0012818
      objectReference: {fileID: 0}
    - target: {fileID: -4216859302048453862, guid: 195f091c0610233419283f749f2dfbf8,
        type: 3}
      propertyPath: m_LocalRotation.x
      value: 0
      objectReference: {fileID: 0}
    - target: {fileID: -4216859302048453862, guid: 195f091c0610233419283f749f2dfbf8,
        type: 3}
      propertyPath: m_LocalRotation.y
      value: 0
      objectReference: {fileID: 0}
    - target: {fileID: -4216859302048453862, guid: 195f091c0610233419283f749f2dfbf8,
        type: 3}
      propertyPath: m_LocalRotation.z
      value: 0
      objectReference: {fileID: 0}
    - target: {fileID: -4216859302048453862, guid: 195f091c0610233419283f749f2dfbf8,
        type: 3}
      propertyPath: m_LocalRotation.w
      value: 1
      objectReference: {fileID: 0}
    - target: {fileID: -4216859302048453862, guid: 195f091c0610233419283f749f2dfbf8,
        type: 3}
      propertyPath: m_RootOrder
      value: 0
      objectReference: {fileID: 0}
    - target: {fileID: -4216859302048453862, guid: 195f091c0610233419283f749f2dfbf8,
        type: 3}
      propertyPath: m_LocalEulerAnglesHint.x
      value: 0
      objectReference: {fileID: 0}
    - target: {fileID: -4216859302048453862, guid: 195f091c0610233419283f749f2dfbf8,
        type: 3}
      propertyPath: m_LocalEulerAnglesHint.y
      value: 0
      objectReference: {fileID: 0}
    - target: {fileID: -4216859302048453862, guid: 195f091c0610233419283f749f2dfbf8,
        type: 3}
      propertyPath: m_LocalEulerAnglesHint.z
      value: 0
      objectReference: {fileID: 0}
    - target: {fileID: -4216859302048453862, guid: 195f091c0610233419283f749f2dfbf8,
        type: 3}
      propertyPath: m_LocalScale.x
      value: 0.482705
      objectReference: {fileID: 0}
    - target: {fileID: -4216859302048453862, guid: 195f091c0610233419283f749f2dfbf8,
        type: 3}
      propertyPath: m_LocalScale.y
      value: 0.482705
      objectReference: {fileID: 0}
    - target: {fileID: -4216859302048453862, guid: 195f091c0610233419283f749f2dfbf8,
        type: 3}
      propertyPath: m_LocalScale.z
      value: 0.482705
      objectReference: {fileID: 0}
    - target: {fileID: 7051043437603872424, guid: 195f091c0610233419283f749f2dfbf8,
        type: 3}
      propertyPath: m_DynamicOccludee
      value: 0
      objectReference: {fileID: 0}
    - target: {fileID: 7051043437603872424, guid: 195f091c0610233419283f749f2dfbf8,
        type: 3}
      propertyPath: m_CastShadows
      value: 0
      objectReference: {fileID: 0}
    - target: {fileID: 7051043437603872424, guid: 195f091c0610233419283f749f2dfbf8,
        type: 3}
      propertyPath: m_LightProbeUsage
      value: 0
      objectReference: {fileID: 0}
    m_RemovedComponents: []
  m_SourcePrefab: {fileID: 100100000, guid: 195f091c0610233419283f749f2dfbf8, type: 3}
--- !u!4 &697386657799034186 stripped
Transform:
  m_CorrespondingSourceObject: {fileID: -4216859302048453862, guid: 195f091c0610233419283f749f2dfbf8,
    type: 3}
  m_PrefabInstance: {fileID: 5536940132439752272}
  m_PrefabAsset: {fileID: 0}
