%YAML 1.1
%TAG !u! tag:unity3d.com,2011:
--- !u!114 &11400000
MonoBehaviour:
  m_ObjectHideFlags: 0
  m_CorrespondingSourceObject: {fileID: 0}
  m_PrefabInstance: {fileID: 0}
  m_PrefabAsset: {fileID: 0}
  m_GameObject: {fileID: 0}
  m_Enabled: 1
  m_EditorHideFlags: 0
  m_Script: {fileID: 11500000, guid: bbb281ee3bf0b054c82ac2347e9e782c, type: 3}
  m_Name: Default Local Group
  m_EditorClassIdentifier: 
  m_GroupName: Default Local Group
  m_Data:
    m_SerializedData: []
  m_GUID: dd87bca876f07d84692674730f6f3cdc
  m_SerializeEntries: []
  m_ReadOnly: 0
  m_Settings: {fileID: 11400000, guid: e5c5e055483c0f746b092acc771090ee, type: 2}
  m_SchemaSet:
    m_Schemas:
    - {fileID: 11400000, guid: 9c84679a13bcc8f4ba3f9198d6feaf5b, type: 2}
    - {fileID: 11400000, guid: c716f4a0097b3c140b8dff67d1ca6669, type: 2}
