%YAML 1.1
%TAG !u! tag:unity3d.com,2011:
--- !u!1 &101860
GameObject:
  m_ObjectHideFlags: 0
  m_CorrespondingSourceObject: {fileID: 0}
  m_PrefabInstance: {fileID: 0}
  m_PrefabAsset: {fileID: 0}
  serializedVersion: 6
  m_Component:
  - component: {fileID: 418868}
  m_Layer: 0
  m_Name: RightArm
  m_TagString: Untagged
  m_Icon: {fileID: 0}
  m_NavMeshLayer: 0
  m_StaticEditorFlags: 0
  m_IsActive: 1
--- !u!4 &418868
Transform:
  m_ObjectHideFlags: 0
  m_CorrespondingSourceObject: {fileID: 0}
  m_PrefabInstance: {fileID: 0}
  m_PrefabAsset: {fileID: 0}
  m_GameObject: {fileID: 101860}
  m_LocalRotation: {x: -0.18637764, y: 0.28389335, z: -0.0046282834, w: 0.9405565}
  m_LocalPosition: {x: -0.086452276, y: 0.000000038146972, z: 0}
  m_LocalScale: {x: 1.0000001, y: 1, z: 1}
  m_Children:
  - {fileID: 440310}
  m_Father: {fileID: 463388}
  m_RootOrder: 0
  m_LocalEulerAnglesHint: {x: 0, y: 0, z: 0}
--- !u!1 &106912
GameObject:
  m_ObjectHideFlags: 0
  m_CorrespondingSourceObject: {fileID: 0}
  m_PrefabInstance: {fileID: 0}
  m_PrefabAsset: {fileID: 0}
  serializedVersion: 6
  m_Component:
  - component: {fileID: 480102}
  m_Layer: 0
  m_Name: LeftUptLeg
  m_TagString: Untagged
  m_Icon: {fileID: 0}
  m_NavMeshLayer: 0
  m_StaticEditorFlags: 0
  m_IsActive: 1
--- !u!4 &480102
Transform:
  m_ObjectHideFlags: 0
  m_CorrespondingSourceObject: {fileID: 0}
  m_PrefabInstance: {fileID: 0}
  m_PrefabAsset: {fileID: 0}
  m_GameObject: {fileID: 106912}
  m_LocalRotation: {x: 0.03228681, y: 0.99705213, z: 0.009185707, w: -0.06899475}
  m_LocalPosition: {x: 0.00000015258789, y: 0.00000017523764, z: 0.10736133}
  m_LocalScale: {x: 1, y: 1.0000004, z: 1.0000002}
  m_Children:
  - {fileID: 409874}
  m_Father: {fileID: 497094}
  m_RootOrder: 2
  m_LocalEulerAnglesHint: {x: 0, y: 0, z: 0}
--- !u!1 &108040
GameObject:
  m_ObjectHideFlags: 0
  m_CorrespondingSourceObject: {fileID: 0}
  m_PrefabInstance: {fileID: 0}
  m_PrefabAsset: {fileID: 0}
  serializedVersion: 6
  m_Component:
  - component: {fileID: 453434}
  m_Layer: 0
  m_Name: LeftHand
  m_TagString: Untagged
  m_Icon: {fileID: 0}
  m_NavMeshLayer: 0
  m_StaticEditorFlags: 0
  m_IsActive: 1
--- !u!4 &453434
Transform:
  m_ObjectHideFlags: 0
  m_CorrespondingSourceObject: {fileID: 0}
  m_PrefabInstance: {fileID: 0}
  m_PrefabAsset: {fileID: 0}
  m_GameObject: {fileID: 108040}
  m_LocalRotation: {x: -0.7506044, y: -0.08141338, z: -0.15716945, w: 0.63660246}
  m_LocalPosition: {x: -0.22099178, y: 0.000000009536743, z: 0.00000015258789}
  m_LocalScale: {x: 0.99999994, y: 0.9999997, z: 0.99999994}
  m_Children: []
  m_Father: {fileID: 439338}
  m_RootOrder: 0
  m_LocalEulerAnglesHint: {x: 0, y: 0, z: 0}
--- !u!1 &109236
GameObject:
  m_ObjectHideFlags: 0
  m_CorrespondingSourceObject: {fileID: 0}
  m_PrefabInstance: {fileID: 0}
  m_PrefabAsset: {fileID: 0}
  serializedVersion: 6
  m_Component:
  - component: {fileID: 440310}
  - component: {fileID: 11466484}
  m_Layer: 0
  m_Name: RightForeArm
  m_TagString: Untagged
  m_Icon: {fileID: 0}
  m_NavMeshLayer: 0
  m_StaticEditorFlags: 0
  m_IsActive: 1
--- !u!4 &440310
Transform:
  m_ObjectHideFlags: 0
  m_CorrespondingSourceObject: {fileID: 0}
  m_PrefabInstance: {fileID: 0}
  m_PrefabAsset: {fileID: 0}
  m_GameObject: {fileID: 109236}
  m_LocalRotation: {x: -0.000000018568848, y: 0.00000014879744, z: 0.012121663, w: 0.99992657}
  m_LocalPosition: {x: -0.22445877, y: -0.000000047683713, z: 0.000000076293944}
  m_LocalScale: {x: 1.0000002, y: 0.99999976, z: 1.0000001}
  m_Children:
  - {fileID: 460404}
  m_Father: {fileID: 418868}
  m_RootOrder: 0
  m_LocalEulerAnglesHint: {x: 0, y: 0, z: 0}
--- !u!114 &11466484
MonoBehaviour:
  m_ObjectHideFlags: 0
  m_CorrespondingSourceObject: {fileID: 0}
  m_PrefabInstance: {fileID: 0}
  m_PrefabAsset: {fileID: 0}
  m_GameObject: {fileID: 109236}
  m_Enabled: 1
  m_EditorHideFlags: 0
  m_Script: {fileID: 11500000, guid: fcb73b690c023734fb267911061a15c6, type: 3}
  m_Name: 
  m_EditorClassIdentifier: 
  radius: 0.16
--- !u!1 &109654
GameObject:
  m_ObjectHideFlags: 0
  m_CorrespondingSourceObject: {fileID: 0}
  m_PrefabInstance: {fileID: 0}
  m_PrefabAsset: {fileID: 0}
  serializedVersion: 6
  m_Component:
  - component: {fileID: 400398}
  - component: {fileID: 4008646020796448201}
  - component: {fileID: 6920258080201098018}
  m_Layer: 0
  m_Name: RightFoot
  m_TagString: Untagged
  m_Icon: {fileID: 0}
  m_NavMeshLayer: 0
  m_StaticEditorFlags: 0
  m_IsActive: 1
--- !u!4 &400398
Transform:
  m_ObjectHideFlags: 0
  m_CorrespondingSourceObject: {fileID: 0}
  m_PrefabInstance: {fileID: 0}
  m_PrefabAsset: {fileID: 0}
  m_GameObject: {fileID: 109654}
  m_LocalRotation: {x: -0.006215295, y: 0.069325075, z: -0.07507137, w: 0.9947461}
  m_LocalPosition: {x: -0.27181754, y: -0.000000023841856, z: 0.000000026226044}
  m_LocalScale: {x: 1.0000001, y: 1.0000002, z: 1}
  m_Children: []
  m_Father: {fileID: 428284}
  m_RootOrder: 0
  m_LocalEulerAnglesHint: {x: 0, y: 0, z: 0}
--- !u!135 &4008646020796448201
SphereCollider:
  m_ObjectHideFlags: 0
  m_CorrespondingSourceObject: {fileID: 0}
  m_PrefabInstance: {fileID: 0}
  m_PrefabAsset: {fileID: 0}
  m_GameObject: {fileID: 109654}
  m_Material: {fileID: 0}
  m_IsTrigger: 1
  m_Enabled: 1
  serializedVersion: 2
  m_Radius: 0.05
  m_Center: {x: -0.1, y: 0, z: 0}
--- !u!114 &6920258080201098018
MonoBehaviour:
  m_ObjectHideFlags: 0
  m_CorrespondingSourceObject: {fileID: 0}
  m_PrefabInstance: {fileID: 0}
  m_PrefabAsset: {fileID: 0}
  m_GameObject: {fileID: 109654}
  m_Enabled: 1
  m_EditorHideFlags: 0
  m_Script: {fileID: 11500000, guid: 112454522da1ce849bb086d5df741abe, type: 3}
  m_Name: 
  m_EditorClassIdentifier: 
  _materialList:
  - se_001_walk_grass
  - se_002_walk_geta
  - se_003_walk_default
  - se_004_walk_soil
--- !u!1 &113302
GameObject:
  m_ObjectHideFlags: 0
  m_CorrespondingSourceObject: {fileID: 0}
  m_PrefabInstance: {fileID: 0}
  m_PrefabAsset: {fileID: 0}
  serializedVersion: 6
  m_Component:
  - component: {fileID: 459860}
  - component: {fileID: 11428006}
  m_Layer: 0
  m_Name: RightTale2
  m_TagString: Untagged
  m_Icon: {fileID: 0}
  m_NavMeshLayer: 0
  m_StaticEditorFlags: 0
  m_IsActive: 1
--- !u!4 &459860
Transform:
  m_ObjectHideFlags: 0
  m_CorrespondingSourceObject: {fileID: 0}
  m_PrefabInstance: {fileID: 0}
  m_PrefabAsset: {fileID: 0}
  m_GameObject: {fileID: 113302}
  m_LocalRotation: {x: -0.059801415, y: 0.017075533, z: 0.059266318, w: 0.996303}
  m_LocalPosition: {x: -0.38796782, y: 0.00000072479247, z: 0.0000037384032}
  m_LocalScale: {x: 0.99999917, y: 1.0000012, z: 1.0000038}
  m_Children:
  - {fileID: 481132}
  m_Father: {fileID: 438022}
  m_RootOrder: 0
  m_LocalEulerAnglesHint: {x: 0, y: 0, z: 0}
--- !u!114 &11428006
MonoBehaviour:
  m_ObjectHideFlags: 0
  m_CorrespondingSourceObject: {fileID: 0}
  m_PrefabInstance: {fileID: 0}
  m_PrefabAsset: {fileID: 0}
  m_GameObject: {fileID: 113302}
  m_Enabled: 1
  m_EditorHideFlags: 0
  m_Script: {fileID: 11500000, guid: 37b7c58dc2d739b4c90fe59f6875debf, type: 3}
  m_Name: 
  m_EditorClassIdentifier: 
  child: {fileID: 481132}
  boneAxis: {x: -1, y: 0, z: 0}
  radius: 0.05
  isUseEachBoneForceSettings: 1
  stiffnessForce: 0.01
  dragForce: 0.1
  springForce: {x: 0, y: -0.0001, z: 0}
  colliders:
  - {fileID: 11466484}
  debug: 1
  threshold: 0.01
--- !u!1 &116852
GameObject:
  m_ObjectHideFlags: 0
  m_CorrespondingSourceObject: {fileID: 0}
  m_PrefabInstance: {fileID: 0}
  m_PrefabAsset: {fileID: 0}
  serializedVersion: 6
  m_Component:
  - component: {fileID: 472188}
  - component: {fileID: 11422584}
  m_Layer: 0
  m_Name: RightRibbon1
  m_TagString: Untagged
  m_Icon: {fileID: 0}
  m_NavMeshLayer: 0
  m_StaticEditorFlags: 0
  m_IsActive: 1
--- !u!4 &472188
Transform:
  m_ObjectHideFlags: 0
  m_CorrespondingSourceObject: {fileID: 0}
  m_PrefabInstance: {fileID: 0}
  m_PrefabAsset: {fileID: 0}
  m_GameObject: {fileID: 116852}
  m_LocalRotation: {x: 0.6853423, y: 0.68330896, z: 0.25106603, w: 0.018994223}
  m_LocalPosition: {x: -0.2759661, y: 0.05331232, z: -0.09281739}
  m_LocalScale: {x: 0.9999998, y: 1.0000002, z: 0.9999999}
  m_Children:
  - {fileID: 418834}
  m_Father: {fileID: 417728}
  m_RootOrder: 5
  m_LocalEulerAnglesHint: {x: 0, y: 0, z: 0}
--- !u!114 &11422584
MonoBehaviour:
  m_ObjectHideFlags: 0
  m_CorrespondingSourceObject: {fileID: 0}
  m_PrefabInstance: {fileID: 0}
  m_PrefabAsset: {fileID: 0}
  m_GameObject: {fileID: 116852}
  m_Enabled: 1
  m_EditorHideFlags: 0
  m_Script: {fileID: 11500000, guid: 37b7c58dc2d739b4c90fe59f6875debf, type: 3}
  m_Name: 
  m_EditorClassIdentifier: 
  child: {fileID: 418834}
  boneAxis: {x: -1, y: 0, z: 0}
  radius: 0.05
  isUseEachBoneForceSettings: 1
  stiffnessForce: 0.01
  dragForce: 0.3
  springForce: {x: 0, y: -0.0001, z: 0}
  colliders: []
  debug: 1
  threshold: 0.01
--- !u!1 &117354
GameObject:
  m_ObjectHideFlags: 0
  m_CorrespondingSourceObject: {fileID: 0}
  m_PrefabInstance: {fileID: 0}
  m_PrefabAsset: {fileID: 0}
  serializedVersion: 6
  m_Component:
  - component: {fileID: 445098}
  m_Layer: 0
  m_Name: LeftShoulder
  m_TagString: Untagged
  m_Icon: {fileID: 0}
  m_NavMeshLayer: 0
  m_StaticEditorFlags: 0
  m_IsActive: 1
--- !u!4 &445098
Transform:
  m_ObjectHideFlags: 0
  m_CorrespondingSourceObject: {fileID: 0}
  m_PrefabInstance: {fileID: 0}
  m_PrefabAsset: {fileID: 0}
  m_GameObject: {fileID: 117354}
  m_LocalRotation: {x: -0.6250843, y: -0.03693006, z: 0.7791392, w: 0.029119339}
  m_LocalPosition: {x: -0.10608566, y: -0.0019091605, z: 0.029466536}
  m_LocalScale: {x: 0.9999997, y: 0.9999997, z: 0.99999994}
  m_Children:
  - {fileID: 463144}
  m_Father: {fileID: 408586}
  m_RootOrder: 0
  m_LocalEulerAnglesHint: {x: 0, y: 0, z: 0}
--- !u!1 &122356
GameObject:
  m_ObjectHideFlags: 0
  m_CorrespondingSourceObject: {fileID: 0}
  m_PrefabInstance: {fileID: 0}
  m_PrefabAsset: {fileID: 0}
  serializedVersion: 6
  m_Component:
  - component: {fileID: 419596}
  m_Layer: 0
  m_Name: RightUpLeg
  m_TagString: Untagged
  m_Icon: {fileID: 0}
  m_NavMeshLayer: 0
  m_StaticEditorFlags: 0
  m_IsActive: 1
--- !u!4 &419596
Transform:
  m_ObjectHideFlags: 0
  m_CorrespondingSourceObject: {fileID: 0}
  m_PrefabInstance: {fileID: 0}
  m_PrefabAsset: {fileID: 0}
  m_GameObject: {fileID: 122356}
  m_LocalRotation: {x: 0.03228457, y: 0.99705225, z: -0.009187272, w: 0.06899341}
  m_LocalPosition: {x: -0.00000015258789, y: -0.00000012040138, z: -0.107361354}
  m_LocalScale: {x: 1, y: 0.9999996, z: 0.9999997}
  m_Children:
  - {fileID: 428284}
  m_Father: {fileID: 497094}
  m_RootOrder: 5
  m_LocalEulerAnglesHint: {x: 0, y: 0, z: 0}
--- !u!1 &128338
GameObject:
  m_ObjectHideFlags: 0
  m_CorrespondingSourceObject: {fileID: 0}
  m_PrefabInstance: {fileID: 0}
  m_PrefabAsset: {fileID: 0}
  serializedVersion: 6
  m_Component:
  - component: {fileID: 438022}
  - component: {fileID: 11438770}
  m_Layer: 0
  m_Name: RightTale1
  m_TagString: Untagged
  m_Icon: {fileID: 0}
  m_NavMeshLayer: 0
  m_StaticEditorFlags: 0
  m_IsActive: 1
--- !u!4 &438022
Transform:
  m_ObjectHideFlags: 0
  m_CorrespondingSourceObject: {fileID: 0}
  m_PrefabInstance: {fileID: 0}
  m_PrefabAsset: {fileID: 0}
  m_GameObject: {fileID: 128338}
  m_LocalRotation: {x: 0.14050344, y: 0.073774636, z: 0.98679274, w: 0.03249871}
  m_LocalPosition: {x: 0.030754928, y: -0.09676792, z: -0.101295315}
  m_LocalScale: {x: 1.0000019, y: 1.0000006, z: 0.9999998}
  m_Children:
  - {fileID: 459860}
  m_Father: {fileID: 417728}
  m_RootOrder: 6
  m_LocalEulerAnglesHint: {x: 0, y: 0, z: 0}
--- !u!114 &11438770
MonoBehaviour:
  m_ObjectHideFlags: 0
  m_CorrespondingSourceObject: {fileID: 0}
  m_PrefabInstance: {fileID: 0}
  m_PrefabAsset: {fileID: 0}
  m_GameObject: {fileID: 128338}
  m_Enabled: 1
  m_EditorHideFlags: 0
  m_Script: {fileID: 11500000, guid: 37b7c58dc2d739b4c90fe59f6875debf, type: 3}
  m_Name: 
  m_EditorClassIdentifier: 
  child: {fileID: 459860}
  boneAxis: {x: -1, y: 0, z: 0}
  radius: 0.05
  isUseEachBoneForceSettings: 1
  stiffnessForce: 0.01
  dragForce: 0.1
  springForce: {x: 0, y: -0.0001, z: 0}
  colliders:
  - {fileID: 11466484}
  debug: 1
  threshold: 0.01
--- !u!1 &135650
GameObject:
  m_ObjectHideFlags: 0
  m_CorrespondingSourceObject: {fileID: 0}
  m_PrefabInstance: {fileID: 0}
  m_PrefabAsset: {fileID: 0}
  serializedVersion: 6
  m_Component:
  - component: {fileID: 435284}
  m_Layer: 0
  m_Name: Spine
  m_TagString: Untagged
  m_Icon: {fileID: 0}
  m_NavMeshLayer: 0
  m_StaticEditorFlags: 0
  m_IsActive: 1
--- !u!4 &435284
Transform:
  m_ObjectHideFlags: 0
  m_CorrespondingSourceObject: {fileID: 0}
  m_PrefabInstance: {fileID: 0}
  m_PrefabAsset: {fileID: 0}
  m_GameObject: {fileID: 135650}
  m_LocalRotation: {x: -0.0000020927139, y: 0.0000007808391, z: -0.034967624, w: 0.99938846}
  m_LocalPosition: {x: -0.1295904, y: -0.00009106636, z: 0.00000019764913}
  m_LocalScale: {x: 1.0000004, y: 1.0000002, z: 1.0000002}
  m_Children:
  - {fileID: 436428}
  m_Father: {fileID: 497094}
  m_RootOrder: 6
  m_LocalEulerAnglesHint: {x: 0, y: 0, z: 0}
--- !u!1 &138534
GameObject:
  m_ObjectHideFlags: 0
  m_CorrespondingSourceObject: {fileID: 0}
  m_PrefabInstance: {fileID: 0}
  m_PrefabAsset: {fileID: 0}
  serializedVersion: 6
  m_Component:
  - component: {fileID: 428284}
  m_Layer: 0
  m_Name: RightLeg
  m_TagString: Untagged
  m_Icon: {fileID: 0}
  m_NavMeshLayer: 0
  m_StaticEditorFlags: 0
  m_IsActive: 1
--- !u!4 &428284
Transform:
  m_ObjectHideFlags: 0
  m_CorrespondingSourceObject: {fileID: 0}
  m_PrefabInstance: {fileID: 0}
  m_PrefabAsset: {fileID: 0}
  m_GameObject: {fileID: 138534}
  m_LocalRotation: {x: -6.692936e-10, y: 0.00000003725853, z: 0.04294315, w: 0.99907756}
  m_LocalPosition: {x: -0.2767024, y: -0.0000000047683715, z: 0.000000019073486}
  m_LocalScale: {x: 1.0000001, y: 1.0000004, z: 1.0000004}
  m_Children:
  - {fileID: 400398}
  m_Father: {fileID: 419596}
  m_RootOrder: 0
  m_LocalEulerAnglesHint: {x: 0, y: 0, z: 0}
--- !u!1 &140434
GameObject:
  m_ObjectHideFlags: 0
  m_CorrespondingSourceObject: {fileID: 0}
  m_PrefabInstance: {fileID: 0}
  m_PrefabAsset: {fileID: 0}
  serializedVersion: 6
  m_Component:
  - component: {fileID: 415018}
  - component: {fileID: 11482410}
  m_Layer: 0
  m_Name: LeftTale3
  m_TagString: Untagged
  m_Icon: {fileID: 0}
  m_NavMeshLayer: 0
  m_StaticEditorFlags: 0
  m_IsActive: 1
--- !u!4 &415018
Transform:
  m_ObjectHideFlags: 0
  m_CorrespondingSourceObject: {fileID: 0}
  m_PrefabInstance: {fileID: 0}
  m_PrefabAsset: {fileID: 0}
  m_GameObject: {fileID: 140434}
  m_LocalRotation: {x: 0.021567853, y: 0.00031119084, z: 0.07452892, w: 0.99698555}
  m_LocalPosition: {x: -0.19411322, y: -0.000000114440915, z: -0.000001335144}
  m_LocalScale: {x: 0.99999994, y: 1.0000002, z: 1.0000005}
  m_Children:
  - {fileID: 470000}
  m_Father: {fileID: 458188}
  m_RootOrder: 0
  m_LocalEulerAnglesHint: {x: 0, y: 0, z: 0}
--- !u!114 &11482410
MonoBehaviour:
  m_ObjectHideFlags: 0
  m_CorrespondingSourceObject: {fileID: 0}
  m_PrefabInstance: {fileID: 0}
  m_PrefabAsset: {fileID: 0}
  m_GameObject: {fileID: 140434}
  m_Enabled: 1
  m_EditorHideFlags: 0
  m_Script: {fileID: 11500000, guid: 37b7c58dc2d739b4c90fe59f6875debf, type: 3}
  m_Name: 
  m_EditorClassIdentifier: 
  child: {fileID: 470000}
  boneAxis: {x: -1, y: 0, z: 0}
  radius: 0.05
  isUseEachBoneForceSettings: 1
  stiffnessForce: 0.01
  dragForce: 0.1
  springForce: {x: 0, y: -0.0001, z: 0}
  colliders:
  - {fileID: 11481190}
  debug: 1
  threshold: 0.01
--- !u!1 &142224
GameObject:
  m_ObjectHideFlags: 0
  m_CorrespondingSourceObject: {fileID: 0}
  m_PrefabInstance: {fileID: 0}
  m_PrefabAsset: {fileID: 0}
  serializedVersion: 6
  m_Component:
  - component: {fileID: 430122}
  m_Layer: 0
  m_Name: Jaw
  m_TagString: Untagged
  m_Icon: {fileID: 0}
  m_NavMeshLayer: 0
  m_StaticEditorFlags: 0
  m_IsActive: 1
--- !u!4 &430122
Transform:
  m_ObjectHideFlags: 0
  m_CorrespondingSourceObject: {fileID: 0}
  m_PrefabInstance: {fileID: 0}
  m_PrefabAsset: {fileID: 0}
  m_GameObject: {fileID: 142224}
  m_LocalRotation: {x: 0.70550156, y: 0.04761854, z: -0.70550156, w: 0.04761854}
  m_LocalPosition: {x: -0.042979352, y: 0.028087748, z: 0.00000023001317}
  m_LocalScale: {x: 0.99999946, y: 0.9999999, z: 1}
  m_Children: []
  m_Father: {fileID: 417728}
  m_RootOrder: 0
  m_LocalEulerAnglesHint: {x: 0, y: 0, z: 0}
--- !u!1 &145384
GameObject:
  m_ObjectHideFlags: 0
  m_CorrespondingSourceObject: {fileID: 0}
  m_PrefabInstance: {fileID: 0}
  m_PrefabAsset: {fileID: 0}
  serializedVersion: 6
  m_Component:
  - component: {fileID: 418834}
  m_Layer: 0
  m_Name: RightRibbon2
  m_TagString: Untagged
  m_Icon: {fileID: 0}
  m_NavMeshLayer: 0
  m_StaticEditorFlags: 0
  m_IsActive: 1
--- !u!4 &418834
Transform:
  m_ObjectHideFlags: 0
  m_CorrespondingSourceObject: {fileID: 0}
  m_PrefabInstance: {fileID: 0}
  m_PrefabAsset: {fileID: 0}
  m_GameObject: {fileID: 145384}
  m_LocalRotation: {x: -0.1784592, y: 0.070974134, z: 0.7008617, w: 0.6869555}
  m_LocalPosition: {x: -0.1561331, y: -0.00000015258789, z: -0.0000002670288}
  m_LocalScale: {x: 1.0000006, y: 1.0000004, z: 0.99999994}
  m_Children: []
  m_Father: {fileID: 472188}
  m_RootOrder: 0
  m_LocalEulerAnglesHint: {x: 0, y: 0, z: 0}
--- !u!1 &147342
GameObject:
  m_ObjectHideFlags: 0
  m_CorrespondingSourceObject: {fileID: 0}
  m_PrefabInstance: {fileID: 0}
  m_PrefabAsset: {fileID: 0}
  serializedVersion: 6
  m_Component:
  - component: {fileID: 460404}
  m_Layer: 0
  m_Name: RightHand
  m_TagString: Untagged
  m_Icon: {fileID: 0}
  m_NavMeshLayer: 0
  m_StaticEditorFlags: 0
  m_IsActive: 1
--- !u!4 &460404
Transform:
  m_ObjectHideFlags: 0
  m_CorrespondingSourceObject: {fileID: 0}
  m_PrefabInstance: {fileID: 0}
  m_PrefabAsset: {fileID: 0}
  m_GameObject: {fileID: 147342}
  m_LocalRotation: {x: 0.75060445, y: 0.08141297, z: -0.1571696, w: 0.6366024}
  m_LocalPosition: {x: -0.22099167, y: -0.0000000047683715, z: -0.000000076293944}
  m_LocalScale: {x: 1.0000001, y: 1.0000001, z: 1.0000004}
  m_Children: []
  m_Father: {fileID: 440310}
  m_RootOrder: 0
  m_LocalEulerAnglesHint: {x: 0, y: 0, z: 0}
--- !u!1 &148254
GameObject:
  m_ObjectHideFlags: 0
  m_CorrespondingSourceObject: {fileID: 0}
  m_PrefabInstance: {fileID: 0}
  m_PrefabAsset: {fileID: 0}
  serializedVersion: 6
  m_Component:
  - component: {fileID: 427590}
  m_Layer: 0
  m_Name: LeftEye
  m_TagString: Untagged
  m_Icon: {fileID: 0}
  m_NavMeshLayer: 0
  m_StaticEditorFlags: 0
  m_IsActive: 1
--- !u!4 &427590
Transform:
  m_ObjectHideFlags: 0
  m_CorrespondingSourceObject: {fileID: 0}
  m_PrefabInstance: {fileID: 0}
  m_PrefabAsset: {fileID: 0}
  m_GameObject: {fileID: 148254}
  m_LocalRotation: {x: 0.7133591, y: -0.7007987, z: -0.00000047085769, w: -0.00000045876925}
  m_LocalPosition: {x: -0.08330047, y: -0.017302971, z: 0.058170054}
  m_LocalScale: {x: 0.9999996, y: 0.99999964, z: 0.9999997}
  m_Children: []
  m_Father: {fileID: 417728}
  m_RootOrder: 1
  m_LocalEulerAnglesHint: {x: 0, y: 0, z: 0}
--- !u!1 &149718
GameObject:
  m_ObjectHideFlags: 0
  m_CorrespondingSourceObject: {fileID: 0}
  m_PrefabInstance: {fileID: 0}
  m_PrefabAsset: {fileID: 0}
  serializedVersion: 6
  m_Component:
  - component: {fileID: 451798}
  - component: {fileID: 3920868724389156}
  - component: {fileID: 7425085017516550999}
  m_Layer: 0
  m_Name: LeftFoot
  m_TagString: Untagged
  m_Icon: {fileID: 0}
  m_NavMeshLayer: 0
  m_StaticEditorFlags: 0
  m_IsActive: 1
--- !u!4 &451798
Transform:
  m_ObjectHideFlags: 0
  m_CorrespondingSourceObject: {fileID: 0}
  m_PrefabInstance: {fileID: 0}
  m_PrefabAsset: {fileID: 0}
  m_GameObject: {fileID: 149718}
  m_LocalRotation: {x: 0.0062151523, y: -0.06932506, z: -0.075072445, w: 0.99474597}
  m_LocalPosition: {x: -0.2718176, y: 0.000000014305114, z: 0.000000029802322}
  m_LocalScale: {x: 1, y: 1.0000001, z: 0.99999994}
  m_Children: []
  m_Father: {fileID: 409874}
  m_RootOrder: 0
  m_LocalEulerAnglesHint: {x: 0, y: 0, z: 0}
--- !u!135 &3920868724389156
SphereCollider:
  m_ObjectHideFlags: 0
  m_CorrespondingSourceObject: {fileID: 0}
  m_PrefabInstance: {fileID: 0}
  m_PrefabAsset: {fileID: 0}
  m_GameObject: {fileID: 149718}
  m_Material: {fileID: 0}
  m_IsTrigger: 1
  m_Enabled: 1
  serializedVersion: 2
  m_Radius: 0.05
  m_Center: {x: -0.1, y: 0, z: 0}
--- !u!114 &7425085017516550999
MonoBehaviour:
  m_ObjectHideFlags: 0
  m_CorrespondingSourceObject: {fileID: 0}
  m_PrefabInstance: {fileID: 0}
  m_PrefabAsset: {fileID: 0}
  m_GameObject: {fileID: 149718}
  m_Enabled: 1
  m_EditorHideFlags: 0
  m_Script: {fileID: 11500000, guid: 112454522da1ce849bb086d5df741abe, type: 3}
  m_Name: 
  m_EditorClassIdentifier: 
  _materialList:
  - se_001_walk_grass
  - se_002_walk_geta
  - se_003_walk_default
  - se_004_walk_soil
--- !u!1 &150022
GameObject:
  m_ObjectHideFlags: 0
  m_CorrespondingSourceObject: {fileID: 0}
  m_PrefabInstance: {fileID: 0}
  m_PrefabAsset: {fileID: 0}
  serializedVersion: 6
  m_Component:
  - component: {fileID: 412608}
  m_Layer: 0
  m_Name: LeftSusoFront
  m_TagString: Untagged
  m_Icon: {fileID: 0}
  m_NavMeshLayer: 0
  m_StaticEditorFlags: 0
  m_IsActive: 1
--- !u!4 &412608
Transform:
  m_ObjectHideFlags: 0
  m_CorrespondingSourceObject: {fileID: 0}
  m_PrefabInstance: {fileID: 0}
  m_PrefabAsset: {fileID: 0}
  m_GameObject: {fileID: 150022}
  m_LocalRotation: {x: 0.6041565, y: -0.09459688, z: 0.72236985, w: -0.3228441}
  m_LocalPosition: {x: -0.089346424, y: 0.07710991, z: 0.09567279}
  m_LocalScale: {x: -1, y: -1.0000001, z: -1.0000001}
  m_Children: []
  m_Father: {fileID: 497094}
  m_RootOrder: 1
  m_LocalEulerAnglesHint: {x: 0, y: 0, z: 0}
--- !u!1 &156144
GameObject:
  m_ObjectHideFlags: 0
  m_CorrespondingSourceObject: {fileID: 0}
  m_PrefabInstance: {fileID: 0}
  m_PrefabAsset: {fileID: 0}
  serializedVersion: 6
  m_Component:
  - component: {fileID: 453646}
  - component: {fileID: 13798858}
  m_Layer: 0
  m_Name: PC01_Kohaku
  m_TagString: Untagged
  m_Icon: {fileID: 0}
  m_NavMeshLayer: 0
  m_StaticEditorFlags: 0
  m_IsActive: 1
--- !u!4 &453646
Transform:
  m_ObjectHideFlags: 0
  m_CorrespondingSourceObject: {fileID: 0}
  m_PrefabInstance: {fileID: 0}
  m_PrefabAsset: {fileID: 0}
  m_GameObject: {fileID: 156144}
  m_LocalRotation: {x: 0, y: 0, z: 0, w: 1}
  m_LocalPosition: {x: 0, y: 0, z: 0}
  m_LocalScale: {x: 1, y: 1, z: 1}
  m_Children: []
  m_Father: {fileID: 493328}
  m_RootOrder: 0
  m_LocalEulerAnglesHint: {x: 0, y: 0, z: 0}
--- !u!137 &13798858
SkinnedMeshRenderer:
  m_ObjectHideFlags: 0
  m_CorrespondingSourceObject: {fileID: 0}
  m_PrefabInstance: {fileID: 0}
  m_PrefabAsset: {fileID: 0}
  m_GameObject: {fileID: 156144}
  m_Enabled: 1
  m_CastShadows: 2
  m_ReceiveShadows: 1
  m_DynamicOccludee: 1
  m_MotionVectors: 1
  m_LightProbeUsage: 1
  m_ReflectionProbeUsage: 1
  m_RenderingLayerMask: 1
  m_RendererPriority: 0
  m_Materials:
  - {fileID: 2100000, guid: 0e6fe962f7cee4ffea0666e217efeb3a, type: 2}
  m_StaticBatchInfo:
    firstSubMesh: 0
    subMeshCount: 0
  m_StaticBatchRoot: {fileID: 0}
  m_ProbeAnchor: {fileID: 0}
  m_LightProbeVolumeOverride: {fileID: 0}
  m_ScaleInLightmap: 1
  m_ReceiveGI: 1
  m_PreserveUVs: 0
  m_IgnoreNormalsForChartDetection: 0
  m_ImportantGI: 0
  m_StitchLightmapSeams: 1
  m_SelectedEditorRenderState: 3
  m_MinimumChartSize: 4
  m_AutoUVMaxDistance: 0.5
  m_AutoUVMaxAngle: 89
  m_LightmapParameters: {fileID: 0}
  m_SortingLayerID: 0
  m_SortingLayer: 0
  m_SortingOrder: 0
  serializedVersion: 2
  m_Quality: 0
  m_UpdateWhenOffscreen: 0
  m_SkinnedMotionVectors: 1
  m_Mesh: {fileID: 4300000, guid: 97cd899cd9369b2468f25810d390aed0, type: 3}
  m_Bones:
  - {fileID: 435284}
  - {fileID: 436428}
  - {fileID: 497094}
  - {fileID: 408586}
  - {fileID: 417728}
  - {fileID: 490330}
  - {fileID: 445098}
  - {fileID: 463144}
  - {fileID: 428968}
  - {fileID: 463388}
  - {fileID: 430122}
  - {fileID: 412608}
  - {fileID: 455666}
  - {fileID: 418868}
  - {fileID: 438022}
  - {fileID: 408076}
  - {fileID: 446382}
  - {fileID: 451798}
  - {fileID: 480102}
  - {fileID: 409874}
  - {fileID: 400398}
  - {fileID: 419596}
  - {fileID: 428284}
  - {fileID: 427590}
  - {fileID: 469876}
  - {fileID: 434018}
  - {fileID: 494098}
  - {fileID: 472188}
  - {fileID: 418834}
  - {fileID: 458188}
  - {fileID: 415018}
  - {fileID: 459860}
  - {fileID: 481132}
  - {fileID: 470000}
  - {fileID: 461794}
  - {fileID: 439338}
  - {fileID: 440310}
  - {fileID: 453434}
  - {fileID: 460404}
  m_BlendShapeWeights: []
  m_RootBone: {fileID: 497094}
  m_AABB:
    m_Center: {x: -0.15941694, y: -0.15775643, z: 0.00000074505806}
    m_Extent: {x: 0.7921901, y: 0.35066223, z: 0.5049523}
  m_DirtyAABB: 0
--- !u!1 &156406
GameObject:
  m_ObjectHideFlags: 0
  m_CorrespondingSourceObject: {fileID: 0}
  m_PrefabInstance: {fileID: 0}
  m_PrefabAsset: {fileID: 0}
  serializedVersion: 6
  m_Component:
  - component: {fileID: 497094}
  m_Layer: 0
  m_Name: Hips
  m_TagString: Untagged
  m_Icon: {fileID: 0}
  m_NavMeshLayer: 0
  m_StaticEditorFlags: 0
  m_IsActive: 1
--- !u!4 &497094
Transform:
  m_ObjectHideFlags: 0
  m_CorrespondingSourceObject: {fileID: 0}
  m_PrefabInstance: {fileID: 0}
  m_PrefabAsset: {fileID: 0}
  m_GameObject: {fileID: 156406}
  m_LocalRotation: {x: 0.7071068, y: -0.0000009693778, z: -0.7071068, w: -0.0000009693778}
  m_LocalPosition: {x: 6.897294e-10, y: -0.015779164, z: 0.62953776}
  m_LocalScale: {x: 1, y: 0.9999999, z: 0.9999999}
  m_Children:
  - {fileID: 455666}
  - {fileID: 412608}
  - {fileID: 480102}
  - {fileID: 446382}
  - {fileID: 408076}
  - {fileID: 419596}
  - {fileID: 435284}
  m_Father: {fileID: 460932}
  m_RootOrder: 0
  m_LocalEulerAnglesHint: {x: 0, y: 0, z: 0}
--- !u!1 &158838
GameObject:
  m_ObjectHideFlags: 0
  m_CorrespondingSourceObject: {fileID: 0}
  m_PrefabInstance: {fileID: 0}
  m_PrefabAsset: {fileID: 0}
  serializedVersion: 6
  m_Component:
  - component: {fileID: 431518}
  - component: {fileID: 9558716}
  m_Layer: 0
  m_Name: PC01_Kohaku_kai
  m_TagString: Untagged
  m_Icon: {fileID: 0}
  m_NavMeshLayer: 0
  m_StaticEditorFlags: 0
  m_IsActive: 1
--- !u!4 &431518
Transform:
  m_ObjectHideFlags: 0
  m_CorrespondingSourceObject: {fileID: 0}
  m_PrefabInstance: {fileID: 0}
  m_PrefabAsset: {fileID: 0}
  m_GameObject: {fileID: 158838}
  m_LocalRotation: {x: 0, y: 0, z: 0, w: 1}
  m_LocalPosition: {x: 0, y: 0, z: 0}
  m_LocalScale: {x: 1, y: 1, z: 1}
  m_Children:
  - {fileID: 493328}
  - {fileID: 460932}
  m_Father: {fileID: 0}
  m_RootOrder: 0
  m_LocalEulerAnglesHint: {x: 0, y: 0, z: 0}
--- !u!95 &9558716
Animator:
  serializedVersion: 3
  m_ObjectHideFlags: 0
  m_CorrespondingSourceObject: {fileID: 0}
  m_PrefabInstance: {fileID: 0}
  m_PrefabAsset: {fileID: 0}
  m_GameObject: {fileID: 158838}
  m_Enabled: 1
  m_Avatar: {fileID: 9000000, guid: 97cd899cd9369b2468f25810d390aed0, type: 3}
  m_Controller: {fileID: 0}
  m_CullingMode: 1
  m_UpdateMode: 0
  m_ApplyRootMotion: 0
  m_LinearVelocityBlending: 0
  m_WarningMessage: 
  m_HasTransformHierarchy: 1
  m_AllowConstantClipSamplingOptimization: 1
  m_KeepAnimatorControllerStateOnDisable: 0
--- !u!1 &163878
GameObject:
  m_ObjectHideFlags: 0
  m_CorrespondingSourceObject: {fileID: 0}
  m_PrefabInstance: {fileID: 0}
  m_PrefabAsset: {fileID: 0}
  serializedVersion: 6
  m_Component:
  - component: {fileID: 493328}
  m_Layer: 0
  m_Name: GeoRoot
  m_TagString: Untagged
  m_Icon: {fileID: 0}
  m_NavMeshLayer: 0
  m_StaticEditorFlags: 0
  m_IsActive: 1
--- !u!4 &493328
Transform:
  m_ObjectHideFlags: 0
  m_CorrespondingSourceObject: {fileID: 0}
  m_PrefabInstance: {fileID: 0}
  m_PrefabAsset: {fileID: 0}
  m_GameObject: {fileID: 163878}
  m_LocalRotation: {x: -0.7071068, y: 0, z: -0, w: 0.7071068}
  m_LocalPosition: {x: 0, y: 0, z: 0}
  m_LocalScale: {x: 1, y: 1, z: 1}
  m_Children:
  - {fileID: 453646}
  m_Father: {fileID: 431518}
  m_RootOrder: 0
  m_LocalEulerAnglesHint: {x: 0, y: 0, z: 0}
--- !u!1 &168622
GameObject:
  m_ObjectHideFlags: 0
  m_CorrespondingSourceObject: {fileID: 0}
  m_PrefabInstance: {fileID: 0}
  m_PrefabAsset: {fileID: 0}
  serializedVersion: 6
  m_Component:
  - component: {fileID: 436428}
  m_Layer: 0
  m_Name: Spine1
  m_TagString: Untagged
  m_Icon: {fileID: 0}
  m_NavMeshLayer: 0
  m_StaticEditorFlags: 0
  m_IsActive: 1
--- !u!4 &436428
Transform:
  m_ObjectHideFlags: 0
  m_CorrespondingSourceObject: {fileID: 0}
  m_PrefabInstance: {fileID: 0}
  m_PrefabAsset: {fileID: 0}
  m_GameObject: {fileID: 168622}
  m_LocalRotation: {x: -0.000000017718778, y: -0.0000003104449, z: 0.13479675, w: 0.9908733}
  m_LocalPosition: {x: -0.11465355, y: -0.00010006427, z: -0.000000010662479}
  m_LocalScale: {x: 0.9999999, y: 0.99999976, z: 0.9999999}
  m_Children:
  - {fileID: 408586}
  m_Father: {fileID: 435284}
  m_RootOrder: 0
  m_LocalEulerAnglesHint: {x: 0, y: 0, z: 0}
--- !u!1 &174346
GameObject:
  m_ObjectHideFlags: 0
  m_CorrespondingSourceObject: {fileID: 0}
  m_PrefabInstance: {fileID: 0}
  m_PrefabAsset: {fileID: 0}
  serializedVersion: 6
  m_Component:
  - component: {fileID: 494098}
  m_Layer: 0
  m_Name: LeftRibbon2
  m_TagString: Untagged
  m_Icon: {fileID: 0}
  m_NavMeshLayer: 0
  m_StaticEditorFlags: 0
  m_IsActive: 1
--- !u!4 &494098
Transform:
  m_ObjectHideFlags: 0
  m_CorrespondingSourceObject: {fileID: 0}
  m_PrefabInstance: {fileID: 0}
  m_PrefabAsset: {fileID: 0}
  m_GameObject: {fileID: 174346}
  m_LocalRotation: {x: -0.51568407, y: 0.5872867, z: -0.3985562, w: -0.47991374}
  m_LocalPosition: {x: -0.1561328, y: -0.000000076293944, z: 0.00000015258789}
  m_LocalScale: {x: 0.99999994, y: 1.0000001, z: 1}
  m_Children: []
  m_Father: {fileID: 434018}
  m_RootOrder: 0
  m_LocalEulerAnglesHint: {x: 0, y: 0, z: 0}
--- !u!1 &176210
GameObject:
  m_ObjectHideFlags: 0
  m_CorrespondingSourceObject: {fileID: 0}
  m_PrefabInstance: {fileID: 0}
  m_PrefabAsset: {fileID: 0}
  serializedVersion: 6
  m_Component:
  - component: {fileID: 461794}
  m_Layer: 0
  m_Name: RightTale4
  m_TagString: Untagged
  m_Icon: {fileID: 0}
  m_NavMeshLayer: 0
  m_StaticEditorFlags: 0
  m_IsActive: 1
--- !u!4 &461794
Transform:
  m_ObjectHideFlags: 0
  m_CorrespondingSourceObject: {fileID: 0}
  m_PrefabInstance: {fileID: 0}
  m_PrefabAsset: {fileID: 0}
  m_GameObject: {fileID: 176210}
  m_LocalRotation: {x: 0.050882496, y: -0.7057788, z: 0.0069815237, w: 0.7065682}
  m_LocalPosition: {x: -0.18327053, y: -0.00000028610228, z: 0.0000035476685}
  m_LocalScale: {x: 1.0000035, y: 1.0000001, z: 0.999996}
  m_Children: []
  m_Father: {fileID: 481132}
  m_RootOrder: 0
  m_LocalEulerAnglesHint: {x: 0, y: 0, z: 0}
--- !u!1 &176332
GameObject:
  m_ObjectHideFlags: 0
  m_CorrespondingSourceObject: {fileID: 0}
  m_PrefabInstance: {fileID: 0}
  m_PrefabAsset: {fileID: 0}
  serializedVersion: 6
  m_Component:
  - component: {fileID: 408076}
  m_Layer: 0
  m_Name: RightSusoFront
  m_TagString: Untagged
  m_Icon: {fileID: 0}
  m_NavMeshLayer: 0
  m_StaticEditorFlags: 0
  m_IsActive: 1
--- !u!4 &408076
Transform:
  m_ObjectHideFlags: 0
  m_CorrespondingSourceObject: {fileID: 0}
  m_PrefabInstance: {fileID: 0}
  m_PrefabAsset: {fileID: 0}
  m_GameObject: {fileID: 176332}
  m_LocalRotation: {x: -0.60415465, y: 0.09459874, z: 0.7223703, w: -0.32284573}
  m_LocalPosition: {x: -0.08934673, y: 0.07710937, z: -0.09567283}
  m_LocalScale: {x: -1, y: -1.0000005, z: -1.0000004}
  m_Children: []
  m_Father: {fileID: 497094}
  m_RootOrder: 4
  m_LocalEulerAnglesHint: {x: 0, y: 0, z: 0}
--- !u!1 &178232
GameObject:
  m_ObjectHideFlags: 0
  m_CorrespondingSourceObject: {fileID: 0}
  m_PrefabInstance: {fileID: 0}
  m_PrefabAsset: {fileID: 0}
  serializedVersion: 6
  m_Component:
  - component: {fileID: 469876}
  m_Layer: 0
  m_Name: RightEye
  m_TagString: Untagged
  m_Icon: {fileID: 0}
  m_NavMeshLayer: 0
  m_StaticEditorFlags: 0
  m_IsActive: 1
--- !u!4 &469876
Transform:
  m_ObjectHideFlags: 0
  m_CorrespondingSourceObject: {fileID: 0}
  m_PrefabInstance: {fileID: 0}
  m_PrefabAsset: {fileID: 0}
  m_GameObject: {fileID: 178232}
  m_LocalRotation: {x: 0.7133591, y: -0.7007987, z: -0.00000047085769, w: -0.00000045876925}
  m_LocalPosition: {x: -0.08330063, y: -0.01730278, z: -0.058174852}
  m_LocalScale: {x: 0.9999996, y: 0.99999964, z: 0.9999997}
  m_Children: []
  m_Father: {fileID: 417728}
  m_RootOrder: 4
  m_LocalEulerAnglesHint: {x: 0, y: 0, z: 0}
--- !u!1 &178528
GameObject:
  m_ObjectHideFlags: 0
  m_CorrespondingSourceObject: {fileID: 0}
  m_PrefabInstance: {fileID: 0}
  m_PrefabAsset: {fileID: 0}
  serializedVersion: 6
  m_Component:
  - component: {fileID: 455666}
  m_Layer: 0
  m_Name: LeftSusoBack
  m_TagString: Untagged
  m_Icon: {fileID: 0}
  m_NavMeshLayer: 0
  m_StaticEditorFlags: 0
  m_IsActive: 1
--- !u!4 &455666
Transform:
  m_ObjectHideFlags: 0
  m_CorrespondingSourceObject: {fileID: 0}
  m_PrefabInstance: {fileID: 0}
  m_PrefabAsset: {fileID: 0}
  m_GameObject: {fileID: 178528}
  m_LocalRotation: {x: -0.019557543, y: 0.6405338, z: -0.13691396, w: 0.7553732}
  m_LocalPosition: {x: -0.103113055, y: -0.109199874, z: 0.07957833}
  m_LocalScale: {x: -1.0000001, y: -1.0000001, z: -1.0000002}
  m_Children: []
  m_Father: {fileID: 497094}
  m_RootOrder: 0
  m_LocalEulerAnglesHint: {x: 0, y: 0, z: 0}
--- !u!1 &179210
GameObject:
  m_ObjectHideFlags: 0
  m_CorrespondingSourceObject: {fileID: 0}
  m_PrefabInstance: {fileID: 0}
  m_PrefabAsset: {fileID: 0}
  serializedVersion: 6
  m_Component:
  - component: {fileID: 439338}
  - component: {fileID: 11481190}
  m_Layer: 0
  m_Name: LeftForeArm
  m_TagString: Untagged
  m_Icon: {fileID: 0}
  m_NavMeshLayer: 0
  m_StaticEditorFlags: 0
  m_IsActive: 1
--- !u!4 &439338
Transform:
  m_ObjectHideFlags: 0
  m_CorrespondingSourceObject: {fileID: 0}
  m_PrefabInstance: {fileID: 0}
  m_PrefabAsset: {fileID: 0}
  m_GameObject: {fileID: 179210}
  m_LocalRotation: {x: -0.000000022093227, y: -0.00000005987685, z: 0.0121216215,
    w: 0.99992657}
  m_LocalPosition: {x: -0.22445877, y: -0.0000000047683715, z: -0.000000076293944}
  m_LocalScale: {x: 1.0000001, y: 0.9999999, z: 1.0000001}
  m_Children:
  - {fileID: 453434}
  m_Father: {fileID: 463144}
  m_RootOrder: 0
  m_LocalEulerAnglesHint: {x: 0, y: 0, z: 0}
--- !u!114 &11481190
MonoBehaviour:
  m_ObjectHideFlags: 0
  m_CorrespondingSourceObject: {fileID: 0}
  m_PrefabInstance: {fileID: 0}
  m_PrefabAsset: {fileID: 0}
  m_GameObject: {fileID: 179210}
  m_Enabled: 1
  m_EditorHideFlags: 0
  m_Script: {fileID: 11500000, guid: fcb73b690c023734fb267911061a15c6, type: 3}
  m_Name: 
  m_EditorClassIdentifier: 
  radius: 0.16
--- !u!1 &179964
GameObject:
  m_ObjectHideFlags: 0
  m_CorrespondingSourceObject: {fileID: 0}
  m_PrefabInstance: {fileID: 0}
  m_PrefabAsset: {fileID: 0}
  serializedVersion: 6
  m_Component:
  - component: {fileID: 490330}
  m_Layer: 0
  m_Name: Neck
  m_TagString: Untagged
  m_Icon: {fileID: 0}
  m_NavMeshLayer: 0
  m_StaticEditorFlags: 0
  m_IsActive: 1
--- !u!4 &490330
Transform:
  m_ObjectHideFlags: 0
  m_CorrespondingSourceObject: {fileID: 0}
  m_PrefabInstance: {fileID: 0}
  m_PrefabAsset: {fileID: 0}
  m_GameObject: {fileID: 179964}
  m_LocalRotation: {x: 0.000000020075522, y: 0.000000270402, z: -0.1024611, w: 0.994737}
  m_LocalPosition: {x: -0.15268081, y: -0.0031092262, z: 0.00000001896995}
  m_LocalScale: {x: 0.9999998, y: 0.9999999, z: 0.99999976}
  m_Children:
  - {fileID: 417728}
  m_Father: {fileID: 408586}
  m_RootOrder: 1
  m_LocalEulerAnglesHint: {x: 0, y: 0, z: 0}
--- !u!1 &180108
GameObject:
  m_ObjectHideFlags: 0
  m_CorrespondingSourceObject: {fileID: 0}
  m_PrefabInstance: {fileID: 0}
  m_PrefabAsset: {fileID: 0}
  serializedVersion: 6
  m_Component:
  - component: {fileID: 481132}
  - component: {fileID: 11428030}
  m_Layer: 0
  m_Name: RightTale3
  m_TagString: Untagged
  m_Icon: {fileID: 0}
  m_NavMeshLayer: 0
  m_StaticEditorFlags: 0
  m_IsActive: 1
--- !u!4 &481132
Transform:
  m_ObjectHideFlags: 0
  m_CorrespondingSourceObject: {fileID: 0}
  m_PrefabInstance: {fileID: 0}
  m_PrefabAsset: {fileID: 0}
  m_GameObject: {fileID: 180108}
  m_LocalRotation: {x: -0.02156683, y: -0.00032181697, z: 0.07452849, w: 0.9969856}
  m_LocalPosition: {x: -0.19411491, y: -0.000000076293944, z: 0.000000114440915}
  m_LocalScale: {x: 0.99999624, y: 1.0000001, z: 1.0000039}
  m_Children:
  - {fileID: 461794}
  m_Father: {fileID: 459860}
  m_RootOrder: 0
  m_LocalEulerAnglesHint: {x: 0, y: 0, z: 0}
--- !u!114 &11428030
MonoBehaviour:
  m_ObjectHideFlags: 0
  m_CorrespondingSourceObject: {fileID: 0}
  m_PrefabInstance: {fileID: 0}
  m_PrefabAsset: {fileID: 0}
  m_GameObject: {fileID: 180108}
  m_Enabled: 1
  m_EditorHideFlags: 0
  m_Script: {fileID: 11500000, guid: 37b7c58dc2d739b4c90fe59f6875debf, type: 3}
  m_Name: 
  m_EditorClassIdentifier: 
  child: {fileID: 461794}
  boneAxis: {x: -1, y: 0, z: 0}
  radius: 0.05
  isUseEachBoneForceSettings: 1
  stiffnessForce: 0.01
  dragForce: 0.1
  springForce: {x: 0, y: -0.0001, z: 0}
  colliders:
  - {fileID: 11466484}
  debug: 1
  threshold: 0.01
--- !u!1 &180928
GameObject:
  m_ObjectHideFlags: 0
  m_CorrespondingSourceObject: {fileID: 0}
  m_PrefabInstance: {fileID: 0}
  m_PrefabAsset: {fileID: 0}
  serializedVersion: 6
  m_Component:
  - component: {fileID: 408586}
  m_Layer: 0
  m_Name: Spine2
  m_TagString: Untagged
  m_Icon: {fileID: 0}
  m_NavMeshLayer: 0
  m_StaticEditorFlags: 0
  m_IsActive: 1
--- !u!4 &408586
Transform:
  m_ObjectHideFlags: 0
  m_CorrespondingSourceObject: {fileID: 0}
  m_PrefabInstance: {fileID: 0}
  m_PrefabAsset: {fileID: 0}
  m_GameObject: {fileID: 180928}
  m_LocalRotation: {x: -0.000000032669554, y: -0.00000034919304, z: 0.06432981, w: 0.9979287}
  m_LocalPosition: {x: -0.13041137, y: -0.00010416031, z: 0.000000019282888}
  m_LocalScale: {x: 1.0000002, y: 1.0000005, z: 1.0000002}
  m_Children:
  - {fileID: 445098}
  - {fileID: 490330}
  - {fileID: 463388}
  m_Father: {fileID: 436428}
  m_RootOrder: 0
  m_LocalEulerAnglesHint: {x: 0, y: 0, z: 0}
--- !u!1 &181672
GameObject:
  m_ObjectHideFlags: 0
  m_CorrespondingSourceObject: {fileID: 0}
  m_PrefabInstance: {fileID: 0}
  m_PrefabAsset: {fileID: 0}
  serializedVersion: 6
  m_Component:
  - component: {fileID: 463144}
  m_Layer: 0
  m_Name: LeftArm
  m_TagString: Untagged
  m_Icon: {fileID: 0}
  m_NavMeshLayer: 0
  m_StaticEditorFlags: 0
  m_IsActive: 1
--- !u!4 &463144
Transform:
  m_ObjectHideFlags: 0
  m_CorrespondingSourceObject: {fileID: 0}
  m_PrefabInstance: {fileID: 0}
  m_PrefabAsset: {fileID: 0}
  m_GameObject: {fileID: 181672}
  m_LocalRotation: {x: 0.18637757, y: -0.28389338, z: -0.0046281996, w: 0.9405565}
  m_LocalPosition: {x: -0.08645228, y: 0.000000038146972, z: 0}
  m_LocalScale: {x: 0.9999999, y: 1, z: 0.9999999}
  m_Children:
  - {fileID: 439338}
  m_Father: {fileID: 445098}
  m_RootOrder: 0
  m_LocalEulerAnglesHint: {x: 0, y: 0, z: 0}
--- !u!1 &181856
GameObject:
  m_ObjectHideFlags: 0
  m_CorrespondingSourceObject: {fileID: 0}
  m_PrefabInstance: {fileID: 0}
  m_PrefabAsset: {fileID: 0}
  serializedVersion: 6
  m_Component:
  - component: {fileID: 463388}
  m_Layer: 0
  m_Name: RightShoulder
  m_TagString: Untagged
  m_Icon: {fileID: 0}
  m_NavMeshLayer: 0
  m_StaticEditorFlags: 0
  m_IsActive: 1
--- !u!4 &463388
Transform:
  m_ObjectHideFlags: 0
  m_CorrespondingSourceObject: {fileID: 0}
  m_PrefabInstance: {fileID: 0}
  m_PrefabAsset: {fileID: 0}
  m_GameObject: {fileID: 181856}
  m_LocalRotation: {x: 0.62508416, y: 0.03692793, z: 0.77913946, w: 0.029117605}
  m_LocalPosition: {x: -0.10608558, y: -0.0019089889, z: -0.029466555}
  m_LocalScale: {x: 0.9999999, y: 0.99999994, z: 0.99999994}
  m_Children:
  - {fileID: 418868}
  m_Father: {fileID: 408586}
  m_RootOrder: 2
  m_LocalEulerAnglesHint: {x: 0, y: 0, z: 0}
--- !u!1 &182162
GameObject:
  m_ObjectHideFlags: 0
  m_CorrespondingSourceObject: {fileID: 0}
  m_PrefabInstance: {fileID: 0}
  m_PrefabAsset: {fileID: 0}
  serializedVersion: 6
  m_Component:
  - component: {fileID: 446382}
  m_Layer: 0
  m_Name: RightSusoBack
  m_TagString: Untagged
  m_Icon: {fileID: 0}
  m_NavMeshLayer: 0
  m_StaticEditorFlags: 0
  m_IsActive: 1
--- !u!4 &446382
Transform:
  m_ObjectHideFlags: 0
  m_CorrespondingSourceObject: {fileID: 0}
  m_PrefabInstance: {fileID: 0}
  m_PrefabAsset: {fileID: 0}
  m_GameObject: {fileID: 182162}
  m_LocalRotation: {x: 0.01955499, y: -0.6405329, z: -0.13691242, w: 0.7553742}
  m_LocalPosition: {x: -0.103113286, y: -0.10920029, z: -0.07957731}
  m_LocalScale: {x: -1.0000001, y: -1, z: -1.0000002}
  m_Children: []
  m_Father: {fileID: 497094}
  m_RootOrder: 3
  m_LocalEulerAnglesHint: {x: 0, y: 0, z: 0}
--- !u!1 &183268
GameObject:
  m_ObjectHideFlags: 0
  m_CorrespondingSourceObject: {fileID: 0}
  m_PrefabInstance: {fileID: 0}
  m_PrefabAsset: {fileID: 0}
  serializedVersion: 6
  m_Component:
  - component: {fileID: 417728}
  m_Layer: 0
  m_Name: Head
  m_TagString: Untagged
  m_Icon: {fileID: 0}
  m_NavMeshLayer: 0
  m_StaticEditorFlags: 0
  m_IsActive: 1
--- !u!4 &417728
Transform:
  m_ObjectHideFlags: 0
  m_CorrespondingSourceObject: {fileID: 0}
  m_PrefabInstance: {fileID: 0}
  m_PrefabAsset: {fileID: 0}
  m_GameObject: {fileID: 183268}
  m_LocalRotation: {x: -0.000000022819613, y: 0.00000028256622, z: -0.12899998, w: 0.9916446}
  m_LocalPosition: {x: -0.06150055, y: 0, z: 0.000000025659974}
  m_LocalScale: {x: 1.0000001, y: 1.0000004, z: 1.0000002}
  m_Children:
  - {fileID: 430122}
  - {fileID: 427590}
  - {fileID: 434018}
  - {fileID: 428968}
  - {fileID: 469876}
  - {fileID: 472188}
  - {fileID: 438022}
  m_Father: {fileID: 490330}
  m_RootOrder: 0
  m_LocalEulerAnglesHint: {x: 0, y: 0, z: 0}
--- !u!1 &184216
GameObject:
  m_ObjectHideFlags: 0
  m_CorrespondingSourceObject: {fileID: 0}
  m_PrefabInstance: {fileID: 0}
  m_PrefabAsset: {fileID: 0}
  serializedVersion: 6
  m_Component:
  - component: {fileID: 460932}
  - component: {fileID: 11498200}
  m_Layer: 0
  m_Name: Reference
  m_TagString: Untagged
  m_Icon: {fileID: 0}
  m_NavMeshLayer: 0
  m_StaticEditorFlags: 0
  m_IsActive: 1
--- !u!4 &460932
Transform:
  m_ObjectHideFlags: 0
  m_CorrespondingSourceObject: {fileID: 0}
  m_PrefabInstance: {fileID: 0}
  m_PrefabAsset: {fileID: 0}
  m_GameObject: {fileID: 184216}
  m_LocalRotation: {x: -0.7071068, y: 0, z: -0, w: 0.7071068}
  m_LocalPosition: {x: 0, y: 0, z: 0}
  m_LocalScale: {x: 1, y: 1, z: 1}
  m_Children:
  - {fileID: 497094}
  m_Father: {fileID: 431518}
  m_RootOrder: 1
  m_LocalEulerAnglesHint: {x: 0, y: 0, z: 0}
--- !u!114 &11498200
MonoBehaviour:
  m_ObjectHideFlags: 0
  m_CorrespondingSourceObject: {fileID: 0}
  m_PrefabInstance: {fileID: 0}
  m_PrefabAsset: {fileID: 0}
  m_GameObject: {fileID: 184216}
  m_Enabled: 1
  m_EditorHideFlags: 0
  m_Script: {fileID: 11500000, guid: 6514ba86f976d724ab63844a6015b2aa, type: 3}
  m_Name: 
  m_EditorClassIdentifier: 
  dynamicRatio: 1
  stiffnessForce: 0.06
  stiffnessCurve:
    serializedVersion: 2
    m_Curve:
    - serializedVersion: 3
      time: 0
      value: 0
      inSlope: 0
      outSlope: 0
      tangentMode: 0
      weightedMode: 0
      inWeight: 0.33333334
      outWeight: 0.33333334
    - serializedVersion: 3
      time: 1
      value: 1
      inSlope: 2
      outSlope: 2
      tangentMode: 0
      weightedMode: 0
      inWeight: 0.33333334
      outWeight: 0.33333334
    m_PreInfinity: 2
    m_PostInfinity: 2
    m_RotationOrder: 0
  dragForce: 0.6
  dragCurve:
    serializedVersion: 2
    m_Curve:
    - serializedVersion: 3
      time: 0
      value: 0
      inSlope: 0
      outSlope: 0
      tangentMode: 0
      weightedMode: 0
      inWeight: 0.33333334
      outWeight: 0.33333334
    - serializedVersion: 3
      time: 1
      value: 1
      inSlope: 2
      outSlope: 2
      tangentMode: 0
      weightedMode: 0
      inWeight: 0.33333334
      outWeight: 0.33333334
    m_PreInfinity: 2
    m_PostInfinity: 2
    m_RotationOrder: 0
  springBones:
  - {fileID: 11467808}
  - {fileID: 11422584}
  - {fileID: 11492742}
  - {fileID: 11426976}
  - {fileID: 11482410}
  - {fileID: 11438770}
  - {fileID: 11428006}
  - {fileID: 11428030}
--- !u!1 &186286
GameObject:
  m_ObjectHideFlags: 0
  m_CorrespondingSourceObject: {fileID: 0}
  m_PrefabInstance: {fileID: 0}
  m_PrefabAsset: {fileID: 0}
  serializedVersion: 6
  m_Component:
  - component: {fileID: 434018}
  - component: {fileID: 11467808}
  m_Layer: 0
  m_Name: LeftRibbon1
  m_TagString: Untagged
  m_Icon: {fileID: 0}
  m_NavMeshLayer: 0
  m_StaticEditorFlags: 0
  m_IsActive: 1
--- !u!4 &434018
Transform:
  m_ObjectHideFlags: 0
  m_CorrespondingSourceObject: {fileID: 0}
  m_PrefabInstance: {fileID: 0}
  m_PrefabAsset: {fileID: 0}
  m_GameObject: {fileID: 186286}
  m_LocalRotation: {x: -0.43782642, y: -0.26207554, z: 0.67916334, w: 0.5275998}
  m_LocalPosition: {x: -0.27596655, y: 0.053312033, z: 0.0928185}
  m_LocalScale: {x: 0.99999946, y: 1, z: 1}
  m_Children:
  - {fileID: 494098}
  m_Father: {fileID: 417728}
  m_RootOrder: 2
  m_LocalEulerAnglesHint: {x: 0, y: 0, z: 0}
--- !u!114 &11467808
MonoBehaviour:
  m_ObjectHideFlags: 0
  m_CorrespondingSourceObject: {fileID: 0}
  m_PrefabInstance: {fileID: 0}
  m_PrefabAsset: {fileID: 0}
  m_GameObject: {fileID: 186286}
  m_Enabled: 1
  m_EditorHideFlags: 0
  m_Script: {fileID: 11500000, guid: 37b7c58dc2d739b4c90fe59f6875debf, type: 3}
  m_Name: 
  m_EditorClassIdentifier: 
  child: {fileID: 494098}
  boneAxis: {x: -1, y: 0, z: 0}
  radius: 0.05
  isUseEachBoneForceSettings: 1
  stiffnessForce: 0.01
  dragForce: 0.3
  springForce: {x: 0, y: -0.0001, z: 0}
  colliders: []
  debug: 1
  threshold: 0.01
--- !u!1 &187172
GameObject:
  m_ObjectHideFlags: 0
  m_CorrespondingSourceObject: {fileID: 0}
  m_PrefabInstance: {fileID: 0}
  m_PrefabAsset: {fileID: 0}
  serializedVersion: 6
  m_Component:
  - component: {fileID: 428968}
  - component: {fileID: 11492742}
  m_Layer: 0
  m_Name: LeftTale1
  m_TagString: Untagged
  m_Icon: {fileID: 0}
  m_NavMeshLayer: 0
  m_StaticEditorFlags: 0
  m_IsActive: 1
--- !u!4 &428968
Transform:
  m_ObjectHideFlags: 0
  m_CorrespondingSourceObject: {fileID: 0}
  m_PrefabInstance: {fileID: 0}
  m_PrefabAsset: {fileID: 0}
  m_GameObject: {fileID: 187172}
  m_LocalRotation: {x: -0.14050166, y: -0.073776945, z: 0.98679286, w: 0.032498132}
  m_LocalPosition: {x: 0.030754775, y: -0.09676822, z: 0.10129501}
  m_LocalScale: {x: 0.99999994, y: 1.0000005, z: 0.99999934}
  m_Children:
  - {fileID: 458188}
  m_Father: {fileID: 417728}
  m_RootOrder: 3
  m_LocalEulerAnglesHint: {x: 0, y: 0, z: 0}
--- !u!114 &11492742
MonoBehaviour:
  m_ObjectHideFlags: 0
  m_CorrespondingSourceObject: {fileID: 0}
  m_PrefabInstance: {fileID: 0}
  m_PrefabAsset: {fileID: 0}
  m_GameObject: {fileID: 187172}
  m_Enabled: 1
  m_EditorHideFlags: 0
  m_Script: {fileID: 11500000, guid: 37b7c58dc2d739b4c90fe59f6875debf, type: 3}
  m_Name: 
  m_EditorClassIdentifier: 
  child: {fileID: 458188}
  boneAxis: {x: -1, y: 0, z: 0}
  radius: 0.05
  isUseEachBoneForceSettings: 1
  stiffnessForce: 0.01
  dragForce: 0.1
  springForce: {x: 0, y: -0.0001, z: 0}
  colliders:
  - {fileID: 11481190}
  debug: 1
  threshold: 0.01
--- !u!1 &188854
GameObject:
  m_ObjectHideFlags: 0
  m_CorrespondingSourceObject: {fileID: 0}
  m_PrefabInstance: {fileID: 0}
  m_PrefabAsset: {fileID: 0}
  serializedVersion: 6
  m_Component:
  - component: {fileID: 470000}
  m_Layer: 0
  m_Name: LeftTale4
  m_TagString: Untagged
  m_Icon: {fileID: 0}
  m_NavMeshLayer: 0
  m_StaticEditorFlags: 0
  m_IsActive: 1
--- !u!4 &470000
Transform:
  m_ObjectHideFlags: 0
  m_CorrespondingSourceObject: {fileID: 0}
  m_PrefabInstance: {fileID: 0}
  m_PrefabAsset: {fileID: 0}
  m_GameObject: {fileID: 188854}
  m_LocalRotation: {x: -0.050880875, y: 0.70578486, z: 0.006980679, w: 0.7065622}
  m_LocalPosition: {x: -0.18327014, y: 0.000000057220458, z: -0.0000006866455}
  m_LocalScale: {x: 0.9999991, y: 1.0000006, z: 0.9999997}
  m_Children: []
  m_Father: {fileID: 415018}
  m_RootOrder: 0
  m_LocalEulerAnglesHint: {x: 0, y: 0, z: 0}
--- !u!1 &190166
GameObject:
  m_ObjectHideFlags: 0
  m_CorrespondingSourceObject: {fileID: 0}
  m_PrefabInstance: {fileID: 0}
  m_PrefabAsset: {fileID: 0}
  serializedVersion: 6
  m_Component:
  - component: {fileID: 409874}
  m_Layer: 0
  m_Name: LeftLeg
  m_TagString: Untagged
  m_Icon: {fileID: 0}
  m_NavMeshLayer: 0
  m_StaticEditorFlags: 0
  m_IsActive: 1
--- !u!4 &409874
Transform:
  m_ObjectHideFlags: 0
  m_CorrespondingSourceObject: {fileID: 0}
  m_PrefabInstance: {fileID: 0}
  m_PrefabAsset: {fileID: 0}
  m_GameObject: {fileID: 190166}
  m_LocalRotation: {x: 0.000000023637172, y: 0.00000018745243, z: 0.042942073, w: 0.99907756}
  m_LocalPosition: {x: -0.27670237, y: -0.0000000047683715, z: 0.00000012874602}
  m_LocalScale: {x: 1.0000002, y: 1.0000001, z: 1.0000004}
  m_Children:
  - {fileID: 451798}
  m_Father: {fileID: 480102}
  m_RootOrder: 0
  m_LocalEulerAnglesHint: {x: 0, y: 0, z: 0}
--- !u!1 &195932
GameObject:
  m_ObjectHideFlags: 0
  m_CorrespondingSourceObject: {fileID: 0}
  m_PrefabInstance: {fileID: 0}
  m_PrefabAsset: {fileID: 0}
  serializedVersion: 6
  m_Component:
  - component: {fileID: 458188}
  - component: {fileID: 11426976}
  m_Layer: 0
  m_Name: LeftTale2
  m_TagString: Untagged
  m_Icon: {fileID: 0}
  m_NavMeshLayer: 0
  m_StaticEditorFlags: 0
  m_IsActive: 1
--- !u!4 &458188
Transform:
  m_ObjectHideFlags: 0
  m_CorrespondingSourceObject: {fileID: 0}
  m_PrefabInstance: {fileID: 0}
  m_PrefabAsset: {fileID: 0}
  m_GameObject: {fileID: 195932}
  m_LocalRotation: {x: 0.059801523, y: -0.017068824, z: 0.059267104, w: 0.99630314}
  m_LocalPosition: {x: -0.3879686, y: 0.00000034332274, z: -0.0000012207031}
  m_LocalScale: {x: 1.0000004, y: 1.0000004, z: 0.9999996}
  m_Children:
  - {fileID: 415018}
  m_Father: {fileID: 428968}
  m_RootOrder: 0
  m_LocalEulerAnglesHint: {x: 0, y: 0, z: 0}
--- !u!114 &11426976
MonoBehaviour:
  m_ObjectHideFlags: 0
  m_CorrespondingSourceObject: {fileID: 0}
  m_PrefabInstance: {fileID: 0}
  m_PrefabAsset: {fileID: 0}
  m_GameObject: {fileID: 195932}
  m_Enabled: 1
  m_EditorHideFlags: 0
  m_Script: {fileID: 11500000, guid: 37b7c58dc2d739b4c90fe59f6875debf, type: 3}
  m_Name: 
  m_EditorClassIdentifier: 
  child: {fileID: 415018}
  boneAxis: {x: -1, y: 0, z: 0}
  radius: 0.05
  isUseEachBoneForceSettings: 1
  stiffnessForce: 0.01
  dragForce: 0.1
  springForce: {x: 0, y: -0.0001, z: 0}
  colliders:
  - {fileID: 11481190}
  debug: 1
  threshold: 0.01
