%YAML 1.1
%TAG !u! tag:unity3d.com,2011:
--- !u!114 &11400000
MonoBehaviour:
  m_ObjectHideFlags: 0
  m_CorrespondingSourceObject: {fileID: 0}
  m_PrefabInstance: {fileID: 0}
  m_PrefabAsset: {fileID: 0}
  m_GameObject: {fileID: 0}
  m_Enabled: 1
  m_EditorHideFlags: 0
  m_Script: {fileID: 11500000, guid: 0c97c47092626ea4282fee7969eb4fd1, type: 3}
  m_Name: PlayerData
  m_EditorClassIdentifier: 
  _HP: 5
  _dashSpeed: 40
  _walkSpeed: 20
  _jumpPower: 10
  _CameraPower: 5
