%YAML 1.1
%TAG !u! tag:unity3d.com,2011:
--- !u!29 &1
OcclusionCullingSettings:
  m_ObjectHideFlags: 0
  serializedVersion: 2
  m_OcclusionBakeSettings:
    smallestOccluder: 5
    smallestHole: 0.25
    backfaceThreshold: 100
  m_SceneGUID: 00000000000000000000000000000000
  m_OcclusionCullingData: {fileID: 0}
--- !u!104 &2
RenderSettings:
  m_ObjectHideFlags: 0
  serializedVersion: 9
  m_Fog: 0
  m_FogColor: {r: 0.5, g: 0.5, b: 0.5, a: 1}
  m_FogMode: 3
  m_FogDensity: 0.01
  m_LinearFogStart: 0
  m_LinearFogEnd: 300
  m_AmbientSkyColor: {r: 0.2, g: 0.2, b: 0.2, a: 1}
  m_AmbientEquatorColor: {r: 0.2, g: 0.2, b: 0.2, a: 1}
  m_AmbientGroundColor: {r: 0.2, g: 0.2, b: 0.2, a: 1}
  m_AmbientIntensity: 1
  m_AmbientMode: 3
  m_SubtractiveShadowColor: {r: 0.42, g: 0.478, b: 0.627, a: 1}
  m_SkyboxMaterial: {fileID: 0}
  m_HaloStrength: 0.5
  m_FlareStrength: 1
  m_FlareFadeSpeed: 3
  m_HaloTexture: {fileID: 0}
  m_SpotCookie: {fileID: 10001, guid: 0000000000000000e000000000000000, type: 0}
  m_DefaultReflectionMode: 0
  m_DefaultReflectionResolution: 128
  m_ReflectionBounces: 1
  m_ReflectionIntensity: 1
  m_CustomReflection: {fileID: 0}
  m_Sun: {fileID: 0}
  m_IndirectSpecularColor: {r: 0, g: 0, b: 0, a: 1}
  m_UseRadianceAmbientProbe: 0
--- !u!157 &4
LightmapSettings:
  m_ObjectHideFlags: 0
  serializedVersion: 11
  m_GIWorkflowMode: 1
  m_GISettings:
    serializedVersion: 2
    m_BounceScale: 1
    m_IndirectOutputScale: 1
    m_AlbedoBoost: 1
    m_EnvironmentLightingMode: 0
    m_EnableBakedLightmaps: 1
    m_EnableRealtimeLightmaps: 0
  m_LightmapEditorSettings:
    serializedVersion: 12
    m_Resolution: 1
    m_BakeResolution: 50
    m_AtlasSize: 1024
    m_AO: 0
    m_AOMaxDistance: 1
    m_CompAOExponent: 0
    m_CompAOExponentDirect: 0
    m_ExtractAmbientOcclusion: 0
    m_Padding: 2
    m_LightmapParameters: {fileID: 0}
    m_LightmapsBakeMode: 1
    m_TextureCompression: 0
    m_FinalGather: 0
    m_FinalGatherFiltering: 1
    m_FinalGatherRayCount: 1024
    m_ReflectionCompression: 2
    m_MixedBakeMode: 1
    m_BakeBackend: 0
    m_PVRSampling: 1
    m_PVRDirectSampleCount: 32
    m_PVRSampleCount: 512
    m_PVRBounces: 2
    m_PVREnvironmentSampleCount: 512
    m_PVREnvironmentReferencePointCount: 2048
    m_PVRFilteringMode: 0
    m_PVRDenoiserTypeDirect: 0
    m_PVRDenoiserTypeIndirect: 0
    m_PVRDenoiserTypeAO: 0
    m_PVRFilterTypeDirect: 0
    m_PVRFilterTypeIndirect: 0
    m_PVRFilterTypeAO: 0
    m_PVREnvironmentMIS: 0
    m_PVRCulling: 1
    m_PVRFilteringGaussRadiusDirect: 1
    m_PVRFilteringGaussRadiusIndirect: 5
    m_PVRFilteringGaussRadiusAO: 2
    m_PVRFilteringAtrousPositionSigmaDirect: 0.5
    m_PVRFilteringAtrousPositionSigmaIndirect: 2
    m_PVRFilteringAtrousPositionSigmaAO: 1
    m_ExportTrainingData: 0
    m_TrainingDataDestination: TrainingData
  m_LightingDataAsset: {fileID: 0}
  m_UseShadowmask: 0
--- !u!196 &5
NavMeshSettings:
  serializedVersion: 2
  m_ObjectHideFlags: 0
  m_BuildSettings:
    serializedVersion: 2
    agentTypeID: 0
    agentRadius: 0.5
    agentHeight: 2
    agentSlope: 45
    agentClimb: 0.4
    ledgeDropHeight: 0
    maxJumpAcrossDistance: 0
    minRegionArea: 2
    manualCellSize: 0
    cellSize: 0.16666666
    manualTileSize: 0
    tileSize: 256
    accuratePlacement: 0
    debug:
      m_Flags: 0
  m_NavMeshData: {fileID: 0}
--- !u!1 &180302166
GameObject:
  m_ObjectHideFlags: 0
  m_CorrespondingSourceObject: {fileID: 0}
  m_PrefabInstance: {fileID: 0}
  m_PrefabAsset: {fileID: 0}
  serializedVersion: 6
  m_Component:
  - component: {fileID: 180302171}
  - component: {fileID: 180302170}
  - component: {fileID: 180302169}
  - component: {fileID: 180302168}
  - component: {fileID: 180302167}
  m_Layer: 0
  m_Name: Main Camera
  m_TagString: MainCamera
  m_Icon: {fileID: 0}
  m_NavMeshLayer: 0
  m_StaticEditorFlags: 0
  m_IsActive: 1
--- !u!81 &180302167
AudioListener:
  m_ObjectHideFlags: 0
  m_CorrespondingSourceObject: {fileID: 0}
  m_PrefabInstance: {fileID: 0}
  m_PrefabAsset: {fileID: 0}
  m_GameObject: {fileID: 180302166}
  m_Enabled: 1
--- !u!124 &180302168
Behaviour:
  m_ObjectHideFlags: 0
  m_CorrespondingSourceObject: {fileID: 0}
  m_PrefabInstance: {fileID: 0}
  m_PrefabAsset: {fileID: 0}
  m_GameObject: {fileID: 180302166}
  m_Enabled: 1
--- !u!92 &180302169
Behaviour:
  m_ObjectHideFlags: 0
  m_CorrespondingSourceObject: {fileID: 0}
  m_PrefabInstance: {fileID: 0}
  m_PrefabAsset: {fileID: 0}
  m_GameObject: {fileID: 180302166}
  m_Enabled: 1
--- !u!20 &180302170
Camera:
  m_ObjectHideFlags: 0
  m_CorrespondingSourceObject: {fileID: 0}
  m_PrefabInstance: {fileID: 0}
  m_PrefabAsset: {fileID: 0}
  m_GameObject: {fileID: 180302166}
  m_Enabled: 1
  serializedVersion: 2
  m_ClearFlags: 1
  m_BackGroundColor: {r: 0.19215687, g: 0.3019608, b: 0.4745098, a: 0.019607844}
  m_projectionMatrixMode: 1
  m_GateFitMode: 2
  m_FOVAxisMode: 0
  m_SensorSize: {x: 36, y: 24}
  m_LensShift: {x: 0, y: 0}
  m_FocalLength: 50
  m_NormalizedViewPortRect:
    serializedVersion: 2
    x: 0
    y: 0
    width: 1
    height: 1
  near clip plane: 1
  far clip plane: 60
  field of view: 35.8
  orthographic: 0
  orthographic size: 5
  m_Depth: -1
  m_CullingMask:
    serializedVersion: 2
    m_Bits: 4294967295
  m_RenderingPath: -1
  m_TargetTexture: {fileID: 0}
  m_TargetDisplay: 0
  m_TargetEye: 3
  m_HDR: 0
  m_AllowMSAA: 1
  m_AllowDynamicResolution: 0
  m_ForceIntoRT: 0
  m_OcclusionCulling: 1
  m_StereoConvergence: 10
  m_StereoSeparation: 0.022
--- !u!4 &180302171
Transform:
  m_ObjectHideFlags: 0
  m_CorrespondingSourceObject: {fileID: 0}
  m_PrefabInstance: {fileID: 0}
  m_PrefabAsset: {fileID: 0}
  m_GameObject: {fileID: 180302166}
  m_LocalRotation: {x: -0.051051177, y: 0.9561041, z: -0.18746294, w: -0.21935473}
  m_LocalPosition: {x: 1.086, y: 1.861, z: 2.245}
  m_LocalScale: {x: 1, y: 1, z: 1}
  m_Children: []
  m_Father: {fileID: 0}
  m_RootOrder: 0
  m_LocalEulerAnglesHint: {x: 0, y: 0, z: 0}
--- !u!1 &351312105 stripped
GameObject:
  m_CorrespondingSourceObject: {fileID: 100060, guid: 97cd899cd9369b2468f25810d390aed0,
    type: 3}
  m_PrefabInstance: {fileID: 530056579}
  m_PrefabAsset: {fileID: 0}
--- !u!114 &351312107
MonoBehaviour:
  m_ObjectHideFlags: 0
  m_CorrespondingSourceObject: {fileID: 0}
  m_PrefabInstance: {fileID: 0}
  m_PrefabAsset: {fileID: 0}
  m_GameObject: {fileID: 351312105}
  m_Enabled: 1
  m_EditorHideFlags: 0
  m_Script: {fileID: 11500000, guid: 37b7c58dc2d739b4c90fe59f6875debf, type: 3}
  m_Name: 
  m_EditorClassIdentifier: 
  child: {fileID: 644493322}
  boneAxis: {x: -1, y: 0, z: 0}
  radius: 0.05
  isUseEachBoneForceSettings: 1
  stiffnessForce: 0.01
  dragForce: 0.3
  springForce: {x: 0, y: -0.0001, z: 0}
  colliders: []
  debug: 1
  threshold: 0.01
--- !u!1001 &530056579
PrefabInstance:
  m_ObjectHideFlags: 0
  serializedVersion: 2
  m_Modification:
    m_TransformParent: {fileID: 0}
    m_Modifications:
    - target: {fileID: 400042, guid: 97cd899cd9369b2468f25810d390aed0, type: 3}
      propertyPath: m_LocalPosition.x
      value: 0
      objectReference: {fileID: 0}
    - target: {fileID: 400042, guid: 97cd899cd9369b2468f25810d390aed0, type: 3}
      propertyPath: m_LocalPosition.y
      value: 0
      objectReference: {fileID: 0}
    - target: {fileID: 400042, guid: 97cd899cd9369b2468f25810d390aed0, type: 3}
      propertyPath: m_LocalPosition.z
      value: 0
      objectReference: {fileID: 0}
    - target: {fileID: 400042, guid: 97cd899cd9369b2468f25810d390aed0, type: 3}
      propertyPath: m_LocalRotation.x
      value: 0
      objectReference: {fileID: 0}
    - target: {fileID: 400042, guid: 97cd899cd9369b2468f25810d390aed0, type: 3}
      propertyPath: m_LocalRotation.y
      value: 0
      objectReference: {fileID: 0}
    - target: {fileID: 400042, guid: 97cd899cd9369b2468f25810d390aed0, type: 3}
      propertyPath: m_LocalRotation.z
      value: 0
      objectReference: {fileID: 0}
    - target: {fileID: 400042, guid: 97cd899cd9369b2468f25810d390aed0, type: 3}
      propertyPath: m_LocalRotation.w
      value: 1
      objectReference: {fileID: 0}
    - target: {fileID: 400042, guid: 97cd899cd9369b2468f25810d390aed0, type: 3}
      propertyPath: m_RootOrder
      value: 2
      objectReference: {fileID: 0}
    - target: {fileID: 9500000, guid: 97cd899cd9369b2468f25810d390aed0, type: 3}
      propertyPath: m_Controller
      value: 
      objectReference: {fileID: 0}
    - target: {fileID: 9500000, guid: 97cd899cd9369b2468f25810d390aed0, type: 3}
      propertyPath: m_ApplyRootMotion
      value: 0
      objectReference: {fileID: 0}
    - target: {fileID: 13700000, guid: 97cd899cd9369b2468f25810d390aed0, type: 3}
      propertyPath: m_Materials.Array.data[0]
      value: 
      objectReference: {fileID: 2100000, guid: 0e6fe962f7cee4ffea0666e217efeb3a, type: 2}
    m_RemovedComponents: []
  m_SourcePrefab: {fileID: 100100000, guid: 97cd899cd9369b2468f25810d390aed0, type: 3}
--- !u!4 &559969932 stripped
Transform:
  m_CorrespondingSourceObject: {fileID: 400036, guid: 97cd899cd9369b2468f25810d390aed0,
    type: 3}
  m_PrefabInstance: {fileID: 530056579}
  m_PrefabAsset: {fileID: 0}
--- !u!4 &644493322 stripped
Transform:
  m_CorrespondingSourceObject: {fileID: 400062, guid: 97cd899cd9369b2468f25810d390aed0,
    type: 3}
  m_PrefabInstance: {fileID: 530056579}
  m_PrefabAsset: {fileID: 0}
--- !u!1 &1111860976 stripped
GameObject:
  m_CorrespondingSourceObject: {fileID: 100070, guid: 97cd899cd9369b2468f25810d390aed0,
    type: 3}
  m_PrefabInstance: {fileID: 530056579}
  m_PrefabAsset: {fileID: 0}
--- !u!114 &1111860978
MonoBehaviour:
  m_ObjectHideFlags: 0
  m_CorrespondingSourceObject: {fileID: 0}
  m_PrefabInstance: {fileID: 0}
  m_PrefabAsset: {fileID: 0}
  m_GameObject: {fileID: 1111860976}
  m_Enabled: 1
  m_EditorHideFlags: 0
  m_Script: {fileID: 11500000, guid: 37b7c58dc2d739b4c90fe59f6875debf, type: 3}
  m_Name: 
  m_EditorClassIdentifier: 
  child: {fileID: 1629974036}
  boneAxis: {x: -1, y: 0, z: 0}
  radius: 0.05
  isUseEachBoneForceSettings: 1
  stiffnessForce: 0.01
  dragForce: 0.1
  springForce: {x: 0, y: -0.0001, z: 0}
  colliders:
  - {fileID: 1653553080}
  debug: 1
  threshold: 0.01
--- !u!4 &1135278429 stripped
Transform:
  m_CorrespondingSourceObject: {fileID: 400022, guid: 97cd899cd9369b2468f25810d390aed0,
    type: 3}
  m_PrefabInstance: {fileID: 530056579}
  m_PrefabAsset: {fileID: 0}
--- !u!1 &1180306736 stripped
GameObject:
  m_CorrespondingSourceObject: {fileID: 100032, guid: 97cd899cd9369b2468f25810d390aed0,
    type: 3}
  m_PrefabInstance: {fileID: 530056579}
  m_PrefabAsset: {fileID: 0}
--- !u!4 &1180306737 stripped
Transform:
  m_CorrespondingSourceObject: {fileID: 400032, guid: 97cd899cd9369b2468f25810d390aed0,
    type: 3}
  m_PrefabInstance: {fileID: 530056579}
  m_PrefabAsset: {fileID: 0}
--- !u!114 &1180306738
MonoBehaviour:
  m_ObjectHideFlags: 0
  m_CorrespondingSourceObject: {fileID: 0}
  m_PrefabInstance: {fileID: 0}
  m_PrefabAsset: {fileID: 0}
  m_GameObject: {fileID: 1180306736}
  m_Enabled: 1
  m_EditorHideFlags: 0
  m_Script: {fileID: 11500000, guid: 37b7c58dc2d739b4c90fe59f6875debf, type: 3}
  m_Name: 
  m_EditorClassIdentifier: 
  child: {fileID: 1459482839}
  boneAxis: {x: -1, y: 0, z: 0}
  radius: 0.05
  isUseEachBoneForceSettings: 1
  stiffnessForce: 0.01
  dragForce: 0.1
  springForce: {x: 0, y: -0.0001, z: 0}
  colliders:
  - {fileID: 1495666429}
  debug: 1
  threshold: 0.01
--- !u!1 &1459482838 stripped
GameObject:
  m_CorrespondingSourceObject: {fileID: 100034, guid: 97cd899cd9369b2468f25810d390aed0,
    type: 3}
  m_PrefabInstance: {fileID: 530056579}
  m_PrefabAsset: {fileID: 0}
--- !u!4 &1459482839 stripped
Transform:
  m_CorrespondingSourceObject: {fileID: 400034, guid: 97cd899cd9369b2468f25810d390aed0,
    type: 3}
  m_PrefabInstance: {fileID: 530056579}
  m_PrefabAsset: {fileID: 0}
--- !u!114 &1459482840
MonoBehaviour:
  m_ObjectHideFlags: 0
  m_CorrespondingSourceObject: {fileID: 0}
  m_PrefabInstance: {fileID: 0}
  m_PrefabAsset: {fileID: 0}
  m_GameObject: {fileID: 1459482838}
  m_Enabled: 1
  m_EditorHideFlags: 0
  m_Script: {fileID: 11500000, guid: 37b7c58dc2d739b4c90fe59f6875debf, type: 3}
  m_Name: 
  m_EditorClassIdentifier: 
  child: {fileID: 559969932}
  boneAxis: {x: -1, y: 0, z: 0}
  radius: 0.05
  isUseEachBoneForceSettings: 1
  stiffnessForce: 0.01
  dragForce: 0.1
  springForce: {x: 0, y: -0.0001, z: 0}
  colliders:
  - {fileID: 1495666429}
  debug: 1
  threshold: 0.01
--- !u!1 &1495666427 stripped
GameObject:
  m_CorrespondingSourceObject: {fileID: 100014, guid: 97cd899cd9369b2468f25810d390aed0,
    type: 3}
  m_PrefabInstance: {fileID: 530056579}
  m_PrefabAsset: {fileID: 0}
--- !u!114 &1495666429
MonoBehaviour:
  m_ObjectHideFlags: 0
  m_CorrespondingSourceObject: {fileID: 0}
  m_PrefabInstance: {fileID: 0}
  m_PrefabAsset: {fileID: 0}
  m_GameObject: {fileID: 1495666427}
  m_Enabled: 1
  m_EditorHideFlags: 0
  m_Script: {fileID: 11500000, guid: fcb73b690c023734fb267911061a15c6, type: 3}
  m_Name: 
  m_EditorClassIdentifier: 
  radius: 0.16
--- !u!1 &1629974035 stripped
GameObject:
  m_CorrespondingSourceObject: {fileID: 100072, guid: 97cd899cd9369b2468f25810d390aed0,
    type: 3}
  m_PrefabInstance: {fileID: 530056579}
  m_PrefabAsset: {fileID: 0}
--- !u!4 &1629974036 stripped
Transform:
  m_CorrespondingSourceObject: {fileID: 400072, guid: 97cd899cd9369b2468f25810d390aed0,
    type: 3}
  m_PrefabInstance: {fileID: 530056579}
  m_PrefabAsset: {fileID: 0}
--- !u!114 &1629974037
MonoBehaviour:
  m_ObjectHideFlags: 0
  m_CorrespondingSourceObject: {fileID: 0}
  m_PrefabInstance: {fileID: 0}
  m_PrefabAsset: {fileID: 0}
  m_GameObject: {fileID: 1629974035}
  m_Enabled: 1
  m_EditorHideFlags: 0
  m_Script: {fileID: 11500000, guid: 37b7c58dc2d739b4c90fe59f6875debf, type: 3}
  m_Name: 
  m_EditorClassIdentifier: 
  child: {fileID: 2026458154}
  boneAxis: {x: -1, y: 0, z: 0}
  radius: 0.05
  isUseEachBoneForceSettings: 1
  stiffnessForce: 0.01
  dragForce: 0.1
  springForce: {x: 0, y: -0.0001, z: 0}
  colliders:
  - {fileID: 1653553080}
  debug: 1
  threshold: 0.01
--- !u!1 &1641811906 stripped
GameObject:
  m_CorrespondingSourceObject: {fileID: 100030, guid: 97cd899cd9369b2468f25810d390aed0,
    type: 3}
  m_PrefabInstance: {fileID: 530056579}
  m_PrefabAsset: {fileID: 0}
--- !u!114 &1641811908
MonoBehaviour:
  m_ObjectHideFlags: 0
  m_CorrespondingSourceObject: {fileID: 0}
  m_PrefabInstance: {fileID: 0}
  m_PrefabAsset: {fileID: 0}
  m_GameObject: {fileID: 1641811906}
  m_Enabled: 1
  m_EditorHideFlags: 0
  m_Script: {fileID: 11500000, guid: 37b7c58dc2d739b4c90fe59f6875debf, type: 3}
  m_Name: 
  m_EditorClassIdentifier: 
  child: {fileID: 1180306737}
  boneAxis: {x: -1, y: 0, z: 0}
  radius: 0.05
  isUseEachBoneForceSettings: 1
  stiffnessForce: 0.01
  dragForce: 0.1
  springForce: {x: 0, y: -0.0001, z: 0}
  colliders:
  - {fileID: 1495666429}
  debug: 1
  threshold: 0.01
--- !u!1 &1653553078 stripped
GameObject:
  m_CorrespondingSourceObject: {fileID: 100054, guid: 97cd899cd9369b2468f25810d390aed0,
    type: 3}
  m_PrefabInstance: {fileID: 530056579}
  m_PrefabAsset: {fileID: 0}
--- !u!114 &1653553080
MonoBehaviour:
  m_ObjectHideFlags: 0
  m_CorrespondingSourceObject: {fileID: 0}
  m_PrefabInstance: {fileID: 0}
  m_PrefabAsset: {fileID: 0}
  m_GameObject: {fileID: 1653553078}
  m_Enabled: 1
  m_EditorHideFlags: 0
  m_Script: {fileID: 11500000, guid: fcb73b690c023734fb267911061a15c6, type: 3}
  m_Name: 
  m_EditorClassIdentifier: 
  radius: 0.16
--- !u!4 &1675687269 stripped
Transform:
  m_CorrespondingSourceObject: {fileID: 400076, guid: 97cd899cd9369b2468f25810d390aed0,
    type: 3}
  m_PrefabInstance: {fileID: 530056579}
  m_PrefabAsset: {fileID: 0}
--- !u!1 &1882680698 stripped
GameObject:
  m_CorrespondingSourceObject: {fileID: 100046, guid: 97cd899cd9369b2468f25810d390aed0,
    type: 3}
  m_PrefabInstance: {fileID: 530056579}
  m_PrefabAsset: {fileID: 0}
--- !u!114 &1882680700
MonoBehaviour:
  m_ObjectHideFlags: 0
  m_CorrespondingSourceObject: {fileID: 0}
  m_PrefabInstance: {fileID: 0}
  m_PrefabAsset: {fileID: 0}
  m_GameObject: {fileID: 1882680698}
  m_Enabled: 1
  m_EditorHideFlags: 0
  m_Script: {fileID: 11500000, guid: 6514ba86f976d724ab63844a6015b2aa, type: 3}
  m_Name: 
  m_EditorClassIdentifier: 
  dynamicRatio: 1
  stiffnessForce: 0.06
  stiffnessCurve:
    serializedVersion: 2
    m_Curve:
    - serializedVersion: 3
      time: 0
      value: 0
      inSlope: 0
      outSlope: 0
      tangentMode: 0
      weightedMode: 0
      inWeight: 0.33333334
      outWeight: 0.33333334
    - serializedVersion: 3
      time: 1
      value: 1
      inSlope: 2
      outSlope: 2
      tangentMode: 0
      weightedMode: 0
      inWeight: 0.33333334
      outWeight: 0.33333334
    m_PreInfinity: 2
    m_PostInfinity: 2
    m_RotationOrder: 0
  dragForce: 0.6
  dragCurve:
    serializedVersion: 2
    m_Curve:
    - serializedVersion: 3
      time: 0
      value: 0
      inSlope: 0
      outSlope: 0
      tangentMode: 0
      weightedMode: 0
      inWeight: 0.33333334
      outWeight: 0.33333334
    - serializedVersion: 3
      time: 1
      value: 1
      inSlope: 2
      outSlope: 2
      tangentMode: 0
      weightedMode: 0
      inWeight: 0.33333334
      outWeight: 0.33333334
    m_PreInfinity: 2
    m_PostInfinity: 2
    m_RotationOrder: 0
  springBones:
  - {fileID: 2062080705}
  - {fileID: 351312107}
  - {fileID: 1641811908}
  - {fileID: 1180306738}
  - {fileID: 1459482840}
  - {fileID: 1111860978}
  - {fileID: 1629974037}
  - {fileID: 2026458155}
--- !u!1 &2026458153 stripped
GameObject:
  m_CorrespondingSourceObject: {fileID: 100074, guid: 97cd899cd9369b2468f25810d390aed0,
    type: 3}
  m_PrefabInstance: {fileID: 530056579}
  m_PrefabAsset: {fileID: 0}
--- !u!4 &2026458154 stripped
Transform:
  m_CorrespondingSourceObject: {fileID: 400074, guid: 97cd899cd9369b2468f25810d390aed0,
    type: 3}
  m_PrefabInstance: {fileID: 530056579}
  m_PrefabAsset: {fileID: 0}
--- !u!114 &2026458155
MonoBehaviour:
  m_ObjectHideFlags: 0
  m_CorrespondingSourceObject: {fileID: 0}
  m_PrefabInstance: {fileID: 0}
  m_PrefabAsset: {fileID: 0}
  m_GameObject: {fileID: 2026458153}
  m_Enabled: 1
  m_EditorHideFlags: 0
  m_Script: {fileID: 11500000, guid: 37b7c58dc2d739b4c90fe59f6875debf, type: 3}
  m_Name: 
  m_EditorClassIdentifier: 
  child: {fileID: 1675687269}
  boneAxis: {x: -1, y: 0, z: 0}
  radius: 0.05
  isUseEachBoneForceSettings: 1
  stiffnessForce: 0.01
  dragForce: 0.1
  springForce: {x: 0, y: -0.0001, z: 0}
  colliders:
  - {fileID: 1653553080}
  debug: 1
  threshold: 0.01
--- !u!1 &2062080703 stripped
GameObject:
  m_CorrespondingSourceObject: {fileID: 100020, guid: 97cd899cd9369b2468f25810d390aed0,
    type: 3}
  m_PrefabInstance: {fileID: 530056579}
  m_PrefabAsset: {fileID: 0}
--- !u!114 &2062080705
MonoBehaviour:
  m_ObjectHideFlags: 0
  m_CorrespondingSourceObject: {fileID: 0}
  m_PrefabInstance: {fileID: 0}
  m_PrefabAsset: {fileID: 0}
  m_GameObject: {fileID: 2062080703}
  m_Enabled: 1
  m_EditorHideFlags: 0
  m_Script: {fileID: 11500000, guid: 37b7c58dc2d739b4c90fe59f6875debf, type: 3}
  m_Name: 
  m_EditorClassIdentifier: 
  child: {fileID: 1135278429}
  boneAxis: {x: -1, y: 0, z: 0}
  radius: 0.05
  isUseEachBoneForceSettings: 1
  stiffnessForce: 0.01
  dragForce: 0.3
  springForce: {x: 0, y: -0.0001, z: 0}
  colliders: []
  debug: 1
  threshold: 0.01
